{
    "_links": {
        "self": {
            "href": "http:\/\/default\/block\/2?_format=hal_json"
        },
        "type": {
            "href": "http:\/\/drupal.org\/rest\/type\/block_content\/basic"
        }
    },
    "id": [
        {
            "value": 2
        }
    ],
    "uuid": [
        {
            "value": "3e14f672-2a6e-4dc6-89cb-3fe70b3cc1ef"
        }
    ],
    "revision_id": [
        {
            "value": 2
        }
    ],
    "langcode": [
        {
            "value": "en",
            "lang": "en"
        }
    ],
    "type": [
        {
            "target_id": "basic"
        }
    ],
    "revision_created": [
        {
            "value": "2020-05-06T13:04:56+00:00",
            "format": "Y-m-d\\TH:i:sP"
        }
    ],
    "status": [
        {
            "value": true,
            "lang": "en"
        }
    ],
    "info": [
        {
            "value": "Footer 2",
            "lang": "en"
        }
    ],
    "changed": [
        {
            "value": "2020-05-16T15:36:19+00:00",
            "lang": "en",
            "format": "Y-m-d\\TH:i:sP"
        }
    ],
    "reusable": [
        {
            "value": true
        }
    ],
    "default_langcode": [
        {
            "value": true,
            "lang": "en"
        }
    ],
    "revision_translation_affected": [
        {
            "value": true,
            "lang": "en"
        }
    ],
    "metatag": [
        {
            "value": {
                "title": "| ITCross Starter Kit",
                "canonical_url": "http:\/\/default\/home"
            }
        }
    ],
    "body": [
        {
            "value": "<p><strong>Headquarters:<\/strong><br \/>\r\n914&nbsp;Folsom Ave, Suite 650<br \/>\r\nSan Francisco, CA 94107<\/p>\r\n",
            "format": "basic_html",
            "processed": "<p><strong>Headquarters:<\/strong><br \/>\n914\u00a0Folsom Ave, Suite 650<br \/>\nSan Francisco, CA 94107<\/p>",
            "summary": "",
            "lang": "en"
        }
    ]
}