{
    "_links": {
        "self": {
            "href": "http:\/\/default\/block\/3?_format=hal_json"
        },
        "type": {
            "href": "http:\/\/drupal.org\/rest\/type\/block_content\/basic"
        }
    },
    "id": [
        {
            "value": 3
        }
    ],
    "uuid": [
        {
            "value": "a18d3df8-f948-4143-a1d2-f1a674eb08e8"
        }
    ],
    "revision_id": [
        {
            "value": 3
        }
    ],
    "langcode": [
        {
            "value": "en",
            "lang": "en"
        }
    ],
    "type": [
        {
            "target_id": "basic"
        }
    ],
    "revision_created": [
        {
            "value": "2020-05-09T16:07:42+00:00",
            "format": "Y-m-d\\TH:i:sP"
        }
    ],
    "status": [
        {
            "value": true,
            "lang": "en"
        }
    ],
    "info": [
        {
            "value": "Custom-3",
            "lang": "en"
        }
    ],
    "changed": [
        {
            "value": "2020-05-13T16:29:05+00:00",
            "lang": "en",
            "format": "Y-m-d\\TH:i:sP"
        }
    ],
    "reusable": [
        {
            "value": true
        }
    ],
    "default_langcode": [
        {
            "value": true,
            "lang": "en"
        }
    ],
    "revision_translation_affected": [
        {
            "value": true,
            "lang": "en"
        }
    ],
    "metatag": [
        {
            "value": {
                "title": "| ITCross Starter Kit",
                "canonical_url": "http:\/\/default\/home"
            }
        }
    ],
    "body": [
        {
            "value": "<a href=\"#\"><i class=\"fab fa-facebook-square\"><\/i><\/a>\r\n<a href=\"#\"><i class=\"fab fa-instagram-square\"><\/i><\/a>\r\n<a href=\"#\"><i class=\"fab fa-linkedin\"><\/i><\/a>\r\n<a href=\"#\"><i class=\"fab fa-twitter-square\"><\/i><\/a>",
            "format": "unrestricted_html",
            "processed": "<a href=\"#\"><i class=\"fab fa-facebook-square\"><\/i><\/a>\n<a href=\"#\"><i class=\"fab fa-instagram-square\"><\/i><\/a>\n<a href=\"#\"><i class=\"fab fa-linkedin\"><\/i><\/a>\n<a href=\"#\"><i class=\"fab fa-twitter-square\"><\/i><\/a>",
            "summary": "",
            "lang": "en"
        }
    ]
}