{
    "_links": {
        "self": {
            "href": "http:\/\/default\/sites\/default\/files\/2020-05\/finger-pointing-at-javascript-code.jpg"
        },
        "type": {
            "href": "http:\/\/drupal.org\/rest\/type\/file\/file"
        },
        "http:\/\/drupal.org\/rest\/relation\/file\/file\/uid": [
            {
                "href": "http:\/\/default\/user\/1?_format=hal_json"
            }
        ]
    },
    "fid": [
        {
            "value": 95
        }
    ],
    "uuid": [
        {
            "value": "82c96385-2273-49f1-ac9e-8890bc0b41d6"
        }
    ],
    "langcode": [
        {
            "value": "en"
        }
    ],
    "_embedded": {
        "http:\/\/drupal.org\/rest\/relation\/file\/file\/uid": [
            {
                "_links": {
                    "self": {
                        "href": "http:\/\/default\/user\/1?_format=hal_json"
                    },
                    "type": {
                        "href": "http:\/\/drupal.org\/rest\/type\/user\/user"
                    }
                },
                "uuid": [
                    {
                        "value": "a1bc2276-252f-4bee-9995-acc49610a920"
                    }
                ]
            }
        ]
    },
    "filename": [
        {
            "value": "finger-pointing-at-javascript-code.jpg"
        }
    ],
    "uri": [
        {
            "value": "public:\/\/2020-05\/finger-pointing-at-javascript-code.jpg",
            "url": "\/sites\/default\/files\/2020-05\/finger-pointing-at-javascript-code.jpg"
        }
    ],
    "filemime": [
        {
            "value": "image\/jpeg"
        }
    ],
    "filesize": [
        {
            "value": 82685
        }
    ],
    "status": [
        {
            "value": true
        }
    ],
    "created": [
        {
            "value": "2020-05-16T10:10:52+00:00",
            "format": "Y-m-d\\TH:i:sP"
        }
    ],
    "changed": [
        {
            "value": "2020-05-16T10:11:07+00:00",
            "format": "Y-m-d\\TH:i:sP"
        }
    ]
}