{
    "_links": {
        "self": {
            "href": "http:\/\/default\/sites\/default\/files\/2020-05\/misty-crowded-italian-city.jpg"
        },
        "type": {
            "href": "http:\/\/drupal.org\/rest\/type\/file\/file"
        },
        "http:\/\/drupal.org\/rest\/relation\/file\/file\/uid": [
            {
                "href": "http:\/\/default\/user\/1?_format=hal_json"
            }
        ]
    },
    "fid": [
        {
            "value": 97
        }
    ],
    "uuid": [
        {
            "value": "d5b0a317-591c-4ab6-b99a-a3b0ff05048f"
        }
    ],
    "langcode": [
        {
            "value": "en"
        }
    ],
    "_embedded": {
        "http:\/\/drupal.org\/rest\/relation\/file\/file\/uid": [
            {
                "_links": {
                    "self": {
                        "href": "http:\/\/default\/user\/1?_format=hal_json"
                    },
                    "type": {
                        "href": "http:\/\/drupal.org\/rest\/type\/user\/user"
                    }
                },
                "uuid": [
                    {
                        "value": "a1bc2276-252f-4bee-9995-acc49610a920"
                    }
                ]
            }
        ]
    },
    "filename": [
        {
            "value": "misty-crowded-italian-city.jpg"
        }
    ],
    "uri": [
        {
            "value": "public:\/\/2020-05\/misty-crowded-italian-city.jpg",
            "url": "\/sites\/default\/files\/2020-05\/misty-crowded-italian-city.jpg"
        }
    ],
    "filemime": [
        {
            "value": "image\/jpeg"
        }
    ],
    "filesize": [
        {
            "value": 119375
        }
    ],
    "status": [
        {
            "value": true
        }
    ],
    "created": [
        {
            "value": "2020-05-16T14:34:29+00:00",
            "format": "Y-m-d\\TH:i:sP"
        }
    ],
    "changed": [
        {
            "value": "2020-05-16T14:36:21+00:00",
            "format": "Y-m-d\\TH:i:sP"
        }
    ]
}