{
    "_links": {
        "self": {
            "href": "http:\/\/default\/sites\/default\/files\/2020-05\/business-meeting-over-coffee.jpg"
        },
        "type": {
            "href": "http:\/\/drupal.org\/rest\/type\/file\/file"
        },
        "http:\/\/drupal.org\/rest\/relation\/file\/file\/uid": [
            {
                "href": "http:\/\/default\/user\/1?_format=hal_json"
            }
        ]
    },
    "fid": [
        {
            "value": 90
        }
    ],
    "uuid": [
        {
            "value": "ffb75e88-4b6d-438c-9212-12942f021c87"
        }
    ],
    "langcode": [
        {
            "value": "en"
        }
    ],
    "_embedded": {
        "http:\/\/drupal.org\/rest\/relation\/file\/file\/uid": [
            {
                "_links": {
                    "self": {
                        "href": "http:\/\/default\/user\/1?_format=hal_json"
                    },
                    "type": {
                        "href": "http:\/\/drupal.org\/rest\/type\/user\/user"
                    }
                },
                "uuid": [
                    {
                        "value": "a1bc2276-252f-4bee-9995-acc49610a920"
                    }
                ]
            }
        ]
    },
    "filename": [
        {
            "value": "business-meeting-over-coffee.jpg"
        }
    ],
    "uri": [
        {
            "value": "public:\/\/2020-05\/business-meeting-over-coffee.jpg",
            "url": "\/sites\/default\/files\/2020-05\/business-meeting-over-coffee.jpg"
        }
    ],
    "filemime": [
        {
            "value": "image\/jpeg"
        }
    ],
    "filesize": [
        {
            "value": 163391
        }
    ],
    "status": [
        {
            "value": true
        }
    ],
    "created": [
        {
            "value": "2020-05-16T09:38:36+00:00",
            "format": "Y-m-d\\TH:i:sP"
        }
    ],
    "changed": [
        {
            "value": "2020-05-16T09:38:42+00:00",
            "format": "Y-m-d\\TH:i:sP"
        }
    ]
}