{
    "_links": {
        "self": {
            "href": "http:\/\/default\/sites\/default\/files\/2020-06\/port4.jpg"
        },
        "type": {
            "href": "http:\/\/drupal.org\/rest\/type\/file\/file"
        },
        "http:\/\/drupal.org\/rest\/relation\/file\/file\/uid": [
            {
                "href": "http:\/\/default\/user\/1?_format=hal_json"
            }
        ]
    },
    "fid": [
        {
            "value": 149
        }
    ],
    "uuid": [
        {
            "value": "ddc3e8ca-e724-421e-9f07-1623e6bb432d"
        }
    ],
    "langcode": [
        {
            "value": "en"
        }
    ],
    "_embedded": {
        "http:\/\/drupal.org\/rest\/relation\/file\/file\/uid": [
            {
                "_links": {
                    "self": {
                        "href": "http:\/\/default\/user\/1?_format=hal_json"
                    },
                    "type": {
                        "href": "http:\/\/drupal.org\/rest\/type\/user\/user"
                    }
                },
                "uuid": [
                    {
                        "value": "6173f629-9be0-4140-9642-6f074541f015"
                    }
                ]
            }
        ]
    },
    "filename": [
        {
            "value": "port4.jpg"
        }
    ],
    "uri": [
        {
            "value": "public:\/\/2020-06\/port4.jpg",
            "url": "\/sites\/default\/files\/2020-06\/port4.jpg"
        }
    ],
    "filemime": [
        {
            "value": "image\/jpeg"
        }
    ],
    "filesize": [
        {
            "value": 88203
        }
    ],
    "status": [
        {
            "value": true
        }
    ],
    "created": [
        {
            "value": "2020-06-15T09:59:17+00:00",
            "format": "Y-m-d\\TH:i:sP"
        }
    ],
    "changed": [
        {
            "value": "2020-06-15T10:00:13+00:00",
            "format": "Y-m-d\\TH:i:sP"
        }
    ]
}