{
    "_links": {
        "self": {
            "href": "http:\/\/default\/product-catalog-category\/limited?_format=hal_json"
        },
        "type": {
            "href": "http:\/\/drupal.org\/rest\/type\/taxonomy_term\/product_catalog_categories"
        },
        "http:\/\/drupal.org\/rest\/relation\/taxonomy_term\/product_catalog_categories\/parent": [
            null
        ]
    },
    "tid": [
        {
            "value": 138
        }
    ],
    "uuid": [
        {
            "value": "641a9105-9d9b-4859-a5c1-a3fb4166b4f7"
        }
    ],
    "revision_id": [
        {
            "value": 138
        }
    ],
    "langcode": [
        {
            "value": "en",
            "lang": "en"
        }
    ],
    "vid": [
        {
            "target_id": "product_catalog_categories"
        }
    ],
    "revision_created": [
        {
            "value": "2020-07-02T19:11:27+00:00",
            "format": "Y-m-d\\TH:i:sP"
        }
    ],
    "status": [
        {
            "value": true,
            "lang": "en"
        }
    ],
    "name": [
        {
            "value": "Limited",
            "lang": "en"
        }
    ],
    "weight": [
        {
            "value": 0
        }
    ],
    "_embedded": {
        "http:\/\/drupal.org\/rest\/relation\/taxonomy_term\/product_catalog_categories\/parent": [
            null
        ]
    },
    "changed": [
        {
            "value": "2020-07-02T19:11:27+00:00",
            "lang": "en",
            "format": "Y-m-d\\TH:i:sP"
        }
    ],
    "default_langcode": [
        {
            "value": true,
            "lang": "en"
        }
    ],
    "revision_translation_affected": [
        {
            "value": true,
            "lang": "en"
        }
    ],
    "metatag": [
        {
            "value": {
                "title": "Limited | ITCross Starter Kit",
                "canonical_url": "http:\/\/default\/product-catalog-category\/limited"
            }
        }
    ],
    "path": [
        {
            "alias": "\/product-catalog-category\/limited",
            "pid": 33,
            "langcode": "en",
            "lang": "en"
        }
    ]
}
