{
    "_links": {
        "self": {
            "href": "http:\/\/default\/product-catalog-category\/motor?_format=hal_json"
        },
        "type": {
            "href": "http:\/\/drupal.org\/rest\/type\/taxonomy_term\/product_catalog_categories"
        },
        "http:\/\/drupal.org\/rest\/relation\/taxonomy_term\/product_catalog_categories\/parent": [
            null
        ]
    },
    "tid": [
        {
            "value": 139
        }
    ],
    "uuid": [
        {
            "value": "6a22dc27-72a1-4fa9-ac06-2615777ed4a0"
        }
    ],
    "revision_id": [
        {
            "value": 139
        }
    ],
    "langcode": [
        {
            "value": "en",
            "lang": "en"
        }
    ],
    "vid": [
        {
            "target_id": "product_catalog_categories"
        }
    ],
    "revision_created": [
        {
            "value": "2020-07-02T19:11:33+00:00",
            "format": "Y-m-d\\TH:i:sP"
        }
    ],
    "status": [
        {
            "value": true,
            "lang": "en"
        }
    ],
    "name": [
        {
            "value": "Motor",
            "lang": "en"
        }
    ],
    "weight": [
        {
            "value": 0
        }
    ],
    "_embedded": {
        "http:\/\/drupal.org\/rest\/relation\/taxonomy_term\/product_catalog_categories\/parent": [
            null
        ]
    },
    "changed": [
        {
            "value": "2020-07-02T19:11:33+00:00",
            "lang": "en",
            "format": "Y-m-d\\TH:i:sP"
        }
    ],
    "default_langcode": [
        {
            "value": true,
            "lang": "en"
        }
    ],
    "revision_translation_affected": [
        {
            "value": true,
            "lang": "en"
        }
    ],
    "metatag": [
        {
            "value": {
                "title": "Motor | ITCross Starter Kit",
                "canonical_url": "http:\/\/default\/product-catalog-category\/motor"
            }
        }
    ],
    "path": [
        {
            "alias": "\/product-catalog-category\/motor",
            "pid": 34,
            "langcode": "en",
            "lang": "en"
        }
    ]
}
