{
    "_links": {
        "self": {
            "href": "http:\/\/default\/product-catalog-category\/fashion?_format=hal_json"
        },
        "type": {
            "href": "http:\/\/drupal.org\/rest\/type\/taxonomy_term\/product_catalog_categories"
        },
        "http:\/\/drupal.org\/rest\/relation\/taxonomy_term\/product_catalog_categories\/parent": [
            null
        ]
    },
    "tid": [
        {
            "value": 136
        }
    ],
    "uuid": [
        {
            "value": "b23b4022-a3a6-474c-921e-775b17093f24"
        }
    ],
    "revision_id": [
        {
            "value": 136
        }
    ],
    "langcode": [
        {
            "value": "en",
            "lang": "en"
        }
    ],
    "vid": [
        {
            "target_id": "product_catalog_categories"
        }
    ],
    "revision_created": [
        {
            "value": "2020-07-02T19:11:14+00:00",
            "format": "Y-m-d\\TH:i:sP"
        }
    ],
    "status": [
        {
            "value": true,
            "lang": "en"
        }
    ],
    "name": [
        {
            "value": "Fashion",
            "lang": "en"
        }
    ],
    "weight": [
        {
            "value": 0
        }
    ],
    "_embedded": {
        "http:\/\/drupal.org\/rest\/relation\/taxonomy_term\/product_catalog_categories\/parent": [
            null
        ]
    },
    "changed": [
        {
            "value": "2020-07-02T19:11:14+00:00",
            "lang": "en",
            "format": "Y-m-d\\TH:i:sP"
        }
    ],
    "default_langcode": [
        {
            "value": true,
            "lang": "en"
        }
    ],
    "revision_translation_affected": [
        {
            "value": true,
            "lang": "en"
        }
    ],
    "metatag": [
        {
            "value": {
                "title": "Fashion | ITCross Starter Kit",
                "canonical_url": "http:\/\/default\/product-catalog-category\/fashion"
            }
        }
    ],
    "path": [
        {
            "alias": "\/product-catalog-category\/fashion",
            "pid": 31,
            "langcode": "en",
            "lang": "en"
        }
    ]
}
