{
    "_links": {
        "self": {
            "href": "http:\/\/default\/sites\/default\/files\/2020-05\/card-reader-payment.jpg"
        },
        "type": {
            "href": "http:\/\/drupal.org\/rest\/type\/file\/file"
        },
        "http:\/\/drupal.org\/rest\/relation\/file\/file\/uid": [
            {
                "href": "http:\/\/default\/user\/1?_format=hal_json"
            }
        ]
    },
    "fid": [
        {
            "value": 83
        }
    ],
    "uuid": [
        {
            "value": "1bb4a8c4-3c6c-410c-bf53-abff25727bd0"
        }
    ],
    "langcode": [
        {
            "value": "en"
        }
    ],
    "_embedded": {
        "http:\/\/drupal.org\/rest\/relation\/file\/file\/uid": [
            {
                "_links": {
                    "self": {
                        "href": "http:\/\/default\/user\/1?_format=hal_json"
                    },
                    "type": {
                        "href": "http:\/\/drupal.org\/rest\/type\/user\/user"
                    }
                },
                "uuid": [
                    {
                        "value": "a1bc2276-252f-4bee-9995-acc49610a920"
                    }
                ]
            }
        ]
    },
    "filename": [
        {
            "value": "card-reader-payment.jpg"
        }
    ],
    "uri": [
        {
            "value": "public:\/\/2020-05\/card-reader-payment.jpg",
            "url": "\/sites\/default\/files\/2020-05\/card-reader-payment.jpg"
        }
    ],
    "filemime": [
        {
            "value": "image\/jpeg"
        }
    ],
    "filesize": [
        {
            "value": 930310
        }
    ],
    "status": [
        {
            "value": true
        }
    ],
    "created": [
        {
            "value": "2020-05-01T16:11:45+00:00",
            "format": "Y-m-d\\TH:i:sP"
        }
    ],
    "changed": [
        {
            "value": "2020-05-01T16:12:10+00:00",
            "format": "Y-m-d\\TH:i:sP"
        }
    ]
}