{
    "_links": {
        "self": {
            "href": "http:\/\/default\/sites\/default\/files\/dummyfile4727559170_5e638650f3_b.jpg_2.jpg"
        },
        "type": {
            "href": "http:\/\/drupal.org\/rest\/type\/file\/file"
        },
        "http:\/\/drupal.org\/rest\/relation\/file\/file\/uid": [
            {
                "href": "http:\/\/default\/user\/3?_format=hal_json"
            }
        ]
    },
    "fid": [
        {
            "value": 36
        }
    ],
    "uuid": [
        {
            "value": "cf838a20-727d-4814-9ed8-a54da7c0d4d8"
        }
    ],
    "langcode": [
        {
            "value": "en"
        }
    ],
    "_embedded": {
        "http:\/\/drupal.org\/rest\/relation\/file\/file\/uid": [
            {
                "_links": {
                    "self": {
                        "href": "http:\/\/default\/user\/3?_format=hal_json"
                    },
                    "type": {
                        "href": "http:\/\/drupal.org\/rest\/type\/user\/user"
                    }
                },
                "uuid": [
                    {
                        "value": "88b8f7ac-8875-4b8e-b57d-9db84aa0f7bd"
                    }
                ]
            }
        ]
    },
    "filename": [
        {
            "value": "dummyfile4727559170_5e638650f3_b.jpg.jpg"
        }
    ],
    "uri": [
        {
            "value": "public:\/\/dummyfile4727559170_5e638650f3_b.jpg_2.jpg",
            "url": "\/sites\/default\/files\/dummyfile4727559170_5e638650f3_b.jpg_2.jpg"
        }
    ],
    "filemime": [
        {
            "value": "image\/jpeg"
        }
    ],
    "filesize": [
        {
            "value": 273154
        }
    ],
    "status": [
        {
            "value": true
        }
    ],
    "created": [
        {
            "value": "2020-05-01T15:14:55+00:00",
            "format": "Y-m-d\\TH:i:sP"
        }
    ],
    "changed": [
        {
            "value": "2020-05-01T15:14:55+00:00",
            "format": "Y-m-d\\TH:i:sP"
        }
    ]
}