{
    "_links": {
        "self": {
            "href": "http:\/\/default\/sites\/default\/files\/2020-05\/mountain-on-a-cloudy-day_0.jpg"
        },
        "type": {
            "href": "http:\/\/drupal.org\/rest\/type\/file\/file"
        },
        "http:\/\/drupal.org\/rest\/relation\/file\/file\/uid": [
            {
                "href": "http:\/\/default\/user\/1?_format=hal_json"
            }
        ]
    },
    "fid": [
        {
            "value": 82
        }
    ],
    "uuid": [
        {
            "value": "fcf02590-ba1b-49a7-af2f-e5537921a501"
        }
    ],
    "langcode": [
        {
            "value": "en"
        }
    ],
    "_embedded": {
        "http:\/\/drupal.org\/rest\/relation\/file\/file\/uid": [
            {
                "_links": {
                    "self": {
                        "href": "http:\/\/default\/user\/1?_format=hal_json"
                    },
                    "type": {
                        "href": "http:\/\/drupal.org\/rest\/type\/user\/user"
                    }
                },
                "uuid": [
                    {
                        "value": "a1bc2276-252f-4bee-9995-acc49610a920"
                    }
                ]
            }
        ]
    },
    "filename": [
        {
            "value": "mountain-on-a-cloudy-day_0.jpg"
        }
    ],
    "uri": [
        {
            "value": "public:\/\/2020-05\/mountain-on-a-cloudy-day_0.jpg",
            "url": "\/sites\/default\/files\/2020-05\/mountain-on-a-cloudy-day_0.jpg"
        }
    ],
    "filemime": [
        {
            "value": "image\/jpeg"
        }
    ],
    "filesize": [
        {
            "value": 2301820
        }
    ],
    "status": [
        {
            "value": true
        }
    ],
    "created": [
        {
            "value": "2020-05-01T16:03:48+00:00",
            "format": "Y-m-d\\TH:i:sP"
        }
    ],
    "changed": [
        {
            "value": "2020-05-01T16:04:01+00:00",
            "format": "Y-m-d\\TH:i:sP"
        }
    ]
}