{
    "_links": {
        "self": {
            "href": "http:\/\/default\/category\/getting-started?_format=hal_json"
        },
        "type": {
            "href": "http:\/\/drupal.org\/rest\/type\/taxonomy_term\/article_categories"
        },
        "http:\/\/drupal.org\/rest\/relation\/taxonomy_term\/article_categories\/parent": [
            {
                "href": "http:\/\/default\/category\/getting-help?_format=hal_json"
            }
        ]
    },
    "tid": [
        {
            "value": 8
        }
    ],
    "uuid": [
        {
            "value": "00944523-b645-4a97-904c-b7b4c40466e7"
        }
    ],
    "revision_id": [
        {
            "value": 8
        }
    ],
    "langcode": [
        {
            "value": "en",
            "lang": "en"
        }
    ],
    "vid": [
        {
            "target_id": "article_categories"
        }
    ],
    "revision_created": [
        {
            "value": "2020-04-29T15:04:10+00:00",
            "format": "Y-m-d\\TH:i:sP"
        }
    ],
    "status": [
        {
            "value": true,
            "lang": "en"
        }
    ],
    "name": [
        {
            "value": "Getting Started",
            "lang": "en"
        }
    ],
    "weight": [
        {
            "value": 0
        }
    ],
    "_embedded": {
        "http:\/\/drupal.org\/rest\/relation\/taxonomy_term\/article_categories\/parent": [
            {
                "_links": {
                    "self": {
                        "href": "http:\/\/default\/category\/getting-help?_format=hal_json"
                    },
                    "type": {
                        "href": "http:\/\/drupal.org\/rest\/type\/taxonomy_term\/article_categories"
                    }
                },
                "uuid": [
                    {
                        "value": "e0be28f6-e31f-4d32-a3a5-cabe421abbec"
                    }
                ]
            }
        ]
    },
    "changed": [
        {
            "value": "2020-05-05T18:20:20+00:00",
            "lang": "en",
            "format": "Y-m-d\\TH:i:sP"
        }
    ],
    "default_langcode": [
        {
            "value": true,
            "lang": "en"
        }
    ],
    "revision_translation_affected": [
        {
            "value": true,
            "lang": "en"
        }
    ],
    "metatag": [
        {
            "value": {
                "title": "Getting Started | ITCross Starter Kit",
                "canonical_url": "http:\/\/default\/category\/getting-started"
            }
        }
    ],
    "path": [
        {
            "alias": "\/category\/getting-started",
            "pid": 95,
            "langcode": "en",
            "lang": "en"
        }
    ]
}