{
    "_links": {
        "self": {
            "href": "http:\/\/default\/category\/research?_format=hal_json"
        },
        "type": {
            "href": "http:\/\/drupal.org\/rest\/type\/taxonomy_term\/article_categories"
        },
        "http:\/\/drupal.org\/rest\/relation\/taxonomy_term\/article_categories\/parent": [
            null
        ]
    },
    "tid": [
        {
            "value": 4
        }
    ],
    "uuid": [
        {
            "value": "121c387e-7eff-4d6a-99bf-7210d81f1ebe"
        }
    ],
    "revision_id": [
        {
            "value": 4
        }
    ],
    "langcode": [
        {
            "value": "en",
            "lang": "en"
        }
    ],
    "vid": [
        {
            "target_id": "article_categories"
        }
    ],
    "revision_created": [
        {
            "value": "2020-04-29T15:04:10+00:00",
            "format": "Y-m-d\\TH:i:sP"
        }
    ],
    "status": [
        {
            "value": true,
            "lang": "en"
        }
    ],
    "name": [
        {
            "value": "Research",
            "lang": "en"
        }
    ],
    "weight": [
        {
            "value": 5
        }
    ],
    "_embedded": {
        "http:\/\/drupal.org\/rest\/relation\/taxonomy_term\/article_categories\/parent": [
            null
        ]
    },
    "changed": [
        {
            "value": "2020-05-05T18:20:20+00:00",
            "lang": "en",
            "format": "Y-m-d\\TH:i:sP"
        }
    ],
    "default_langcode": [
        {
            "value": true,
            "lang": "en"
        }
    ],
    "revision_translation_affected": [
        {
            "value": true,
            "lang": "en"
        }
    ],
    "metatag": [
        {
            "value": {
                "title": "Research | ITCross Starter Kit",
                "canonical_url": "http:\/\/default\/category\/research"
            }
        }
    ],
    "path": [
        {
            "alias": "\/category\/research",
            "pid": 91,
            "langcode": "en",
            "lang": "en"
        }
    ]
}