{
    "_links": {
        "self": {
            "href": "http:\/\/default\/tag\/business?_format=hal_json"
        },
        "type": {
            "href": "http:\/\/drupal.org\/rest\/type\/taxonomy_term\/tags"
        },
        "http:\/\/drupal.org\/rest\/relation\/taxonomy_term\/tags\/parent": [
            null
        ]
    },
    "tid": [
        {
            "value": 12
        }
    ],
    "uuid": [
        {
            "value": "1a4acaf4-42a8-4408-8d8a-b2fe86ec5fd2"
        }
    ],
    "revision_id": [
        {
            "value": 12
        }
    ],
    "langcode": [
        {
            "value": "en",
            "lang": "en"
        }
    ],
    "vid": [
        {
            "target_id": "tags"
        }
    ],
    "revision_created": [
        {
            "value": "2020-04-30T18:50:50+00:00",
            "format": "Y-m-d\\TH:i:sP"
        }
    ],
    "status": [
        {
            "value": true,
            "lang": "en"
        }
    ],
    "name": [
        {
            "value": "Business",
            "lang": "en"
        }
    ],
    "weight": [
        {
            "value": 0
        }
    ],
    "_embedded": {
        "http:\/\/drupal.org\/rest\/relation\/taxonomy_term\/tags\/parent": [
            null
        ]
    },
    "changed": [
        {
            "value": "2020-04-30T18:50:50+00:00",
            "lang": "en",
            "format": "Y-m-d\\TH:i:sP"
        }
    ],
    "default_langcode": [
        {
            "value": true,
            "lang": "en"
        }
    ],
    "revision_translation_affected": [
        {
            "value": true,
            "lang": "en"
        }
    ],
    "metatag": [
        {
            "value": {
                "title": "Business | ITCross Starter Kit",
                "canonical_url": "http:\/\/default\/tag\/business"
            }
        }
    ],
    "path": [
        {
            "alias": "\/tag\/business",
            "pid": 8,
            "langcode": "en",
            "lang": "en"
        }
    ]
}