{
    "_links": {
        "self": {
            "href": "http:\/\/default\/taxonomy\/term\/2?_format=hal_json"
        },
        "type": {
            "href": "http:\/\/drupal.org\/rest\/type\/taxonomy_term\/article_type"
        },
        "http:\/\/drupal.org\/rest\/relation\/taxonomy_term\/article_type\/parent": [
            null
        ]
    },
    "tid": [
        {
            "value": 2
        }
    ],
    "uuid": [
        {
            "value": "2446f1b5-92b1-4b36-995b-9a4e4f7506e0"
        }
    ],
    "revision_id": [
        {
            "value": 2
        }
    ],
    "langcode": [
        {
            "value": "en",
            "lang": "en"
        }
    ],
    "vid": [
        {
            "target_id": "article_type"
        }
    ],
    "revision_created": [
        {
            "value": "2020-04-29T15:04:10+00:00",
            "format": "Y-m-d\\TH:i:sP"
        }
    ],
    "status": [
        {
            "value": true,
            "lang": "en"
        }
    ],
    "name": [
        {
            "value": "News",
            "lang": "en"
        }
    ],
    "weight": [
        {
            "value": 0
        }
    ],
    "_embedded": {
        "http:\/\/drupal.org\/rest\/relation\/taxonomy_term\/article_type\/parent": [
            null
        ]
    },
    "changed": [
        {
            "value": "2020-04-29T15:04:10+00:00",
            "lang": "en",
            "format": "Y-m-d\\TH:i:sP"
        }
    ],
    "default_langcode": [
        {
            "value": true,
            "lang": "en"
        }
    ],
    "revision_translation_affected": [
        {
            "value": true,
            "lang": "en"
        }
    ],
    "metatag": [
        {
            "value": {
                "title": "News | ITCross Starter Kit",
                "canonical_url": "http:\/\/default\/taxonomy\/term\/2"
            }
        }
    ],
    "path": [
        {
            "alias": null,
            "pid": null,
            "langcode": "en",
            "lang": "en"
        }
    ]
}