{
    "_links": {
        "self": {
            "href": "http:\/\/default\/tag\/campaigns?_format=hal_json"
        },
        "type": {
            "href": "http:\/\/drupal.org\/rest\/type\/taxonomy_term\/tags"
        },
        "http:\/\/drupal.org\/rest\/relation\/taxonomy_term\/tags\/parent": [
            null
        ]
    },
    "tid": [
        {
            "value": 18
        }
    ],
    "uuid": [
        {
            "value": "26738563-c7c8-4020-816f-5123e0376727"
        }
    ],
    "revision_id": [
        {
            "value": 18
        }
    ],
    "langcode": [
        {
            "value": "en",
            "lang": "en"
        }
    ],
    "vid": [
        {
            "target_id": "tags"
        }
    ],
    "revision_created": [
        {
            "value": "2020-04-30T18:50:50+00:00",
            "format": "Y-m-d\\TH:i:sP"
        }
    ],
    "status": [
        {
            "value": true,
            "lang": "en"
        }
    ],
    "name": [
        {
            "value": "Campaigns",
            "lang": "en"
        }
    ],
    "weight": [
        {
            "value": 0
        }
    ],
    "_embedded": {
        "http:\/\/drupal.org\/rest\/relation\/taxonomy_term\/tags\/parent": [
            null
        ]
    },
    "changed": [
        {
            "value": "2020-04-30T18:50:50+00:00",
            "lang": "en",
            "format": "Y-m-d\\TH:i:sP"
        }
    ],
    "default_langcode": [
        {
            "value": true,
            "lang": "en"
        }
    ],
    "revision_translation_affected": [
        {
            "value": true,
            "lang": "en"
        }
    ],
    "metatag": [
        {
            "value": {
                "title": "Campaigns | ITCross Starter Kit",
                "canonical_url": "http:\/\/default\/tag\/campaigns"
            }
        }
    ],
    "path": [
        {
            "alias": "\/tag\/campaigns",
            "pid": 14,
            "langcode": "en",
            "lang": "en"
        }
    ]
}