{
    "_links": {
        "self": {
            "href": "http:\/\/default\/category\/upgraders?_format=hal_json"
        },
        "type": {
            "href": "http:\/\/drupal.org\/rest\/type\/taxonomy_term\/article_categories"
        },
        "http:\/\/drupal.org\/rest\/relation\/taxonomy_term\/article_categories\/parent": [
            null
        ]
    },
    "tid": [
        {
            "value": 10
        }
    ],
    "uuid": [
        {
            "value": "d03ce9e4-baa3-41cd-b0ff-efb22050c548"
        }
    ],
    "revision_id": [
        {
            "value": 10
        }
    ],
    "langcode": [
        {
            "value": "en",
            "lang": "en"
        }
    ],
    "vid": [
        {
            "target_id": "article_categories"
        }
    ],
    "revision_created": [
        {
            "value": "2020-04-29T15:04:10+00:00",
            "format": "Y-m-d\\TH:i:sP"
        }
    ],
    "status": [
        {
            "value": true,
            "lang": "en"
        }
    ],
    "name": [
        {
            "value": "Upgraders",
            "lang": "en"
        }
    ],
    "weight": [
        {
            "value": 6
        }
    ],
    "_embedded": {
        "http:\/\/drupal.org\/rest\/relation\/taxonomy_term\/article_categories\/parent": [
            null
        ]
    },
    "changed": [
        {
            "value": "2020-05-05T18:20:20+00:00",
            "lang": "en",
            "format": "Y-m-d\\TH:i:sP"
        }
    ],
    "default_langcode": [
        {
            "value": true,
            "lang": "en"
        }
    ],
    "revision_translation_affected": [
        {
            "value": true,
            "lang": "en"
        }
    ],
    "metatag": [
        {
            "value": {
                "title": "Upgraders | ITCross Starter Kit",
                "canonical_url": "http:\/\/default\/category\/upgraders"
            }
        }
    ],
    "path": [
        {
            "alias": "\/category\/upgraders",
            "pid": 97,
            "langcode": "en",
            "lang": "en"
        }
    ]
}