{
    "_links": {
        "self": {
            "href": "http:\/\/default\/product-catalog\/basic?_format=hal_json"
        },
        "type": {
            "href": "http:\/\/drupal.org\/rest\/type\/node\/product"
        },
        "http:\/\/drupal.org\/rest\/relation\/node\/product\/revision_uid": [
            {
                "href": "http:\/\/default\/user\/1?_format=hal_json"
            }
        ],
        "http:\/\/drupal.org\/rest\/relation\/node\/product\/uid": [
            {
                "href": "http:\/\/default\/user\/1?_format=hal_json",
                "lang": "en"
            }
        ],
        "http:\/\/drupal.org\/rest\/relation\/node\/product\/field_product_categories": [
            {
                "href": "http:\/\/default\/product-catalog-category\/football?_format=hal_json"
            }
        ],
        "http:\/\/drupal.org\/rest\/relation\/node\/product\/field_product_image": [
            {
                "href": "http:\/\/default\/sites\/default\/files\/2020-06\/4.jpg"
            }
        ]
    },
    "nid": [
        {
            "value": 174
        }
    ],
    "uuid": [
        {
            "value": "23218e46-35a9-4355-adf0-4c3201196e38"
        }
    ],
    "vid": [
        {
            "value": 174
        }
    ],
    "langcode": [
        {
            "value": "en",
            "lang": "en"
        }
    ],
    "type": [
        {
            "target_id": "product"
        }
    ],
    "revision_timestamp": [
        {
            "value": "2020-06-09T12:41:43+00:00",
            "format": "Y-m-d\\TH:i:sP"
        }
    ],
    "_embedded": {
        "http:\/\/drupal.org\/rest\/relation\/node\/product\/revision_uid": [
            {
                "_links": {
                    "self": {
                        "href": "http:\/\/default\/user\/1?_format=hal_json"
                    },
                    "type": {
                        "href": "http:\/\/drupal.org\/rest\/type\/user\/user"
                    }
                },
                "uuid": [
                    {
                        "value": "78fbb8c7-3fac-456b-bbbe-5acbf6cdbb4f"
                    }
                ]
            }
        ],
        "http:\/\/drupal.org\/rest\/relation\/node\/product\/uid": [
            {
                "_links": {
                    "self": {
                        "href": "http:\/\/default\/user\/1?_format=hal_json"
                    },
                    "type": {
                        "href": "http:\/\/drupal.org\/rest\/type\/user\/user"
                    }
                },
                "uuid": [
                    {
                        "value": "78fbb8c7-3fac-456b-bbbe-5acbf6cdbb4f"
                    }
                ],
                "lang": "en"
            }
        ],
        "http:\/\/drupal.org\/rest\/relation\/node\/product\/field_product_categories": [
            {
                "_links": {
                    "self": {
                        "href": "http:\/\/default\/product-catalog-category\/football?_format=hal_json"
                    },
                    "type": {
                        "href": "http:\/\/drupal.org\/rest\/type\/taxonomy_term\/product_catalog_categories"
                    }
                },
                "uuid": [
                    {
                        "value": "6adbc2a4-8101-4d10-ac7d-9fb98f972019"
                    }
                ]
            }
        ],
        "http:\/\/drupal.org\/rest\/relation\/node\/product\/field_product_image": [
            {
                "_links": {
                    "self": {
                        "href": "http:\/\/default\/sites\/default\/files\/2020-06\/4.jpg"
                    },
                    "type": {
                        "href": "http:\/\/drupal.org\/rest\/type\/file\/file"
                    }
                },
                "uuid": [
                    {
                        "value": "8d39321c-6559-498a-b24d-7a7e175c1ed9"
                    }
                ]
            }
        ]
    },
    "status": [
        {
            "value": true,
            "lang": "en"
        }
    ],
    "title": [
        {
            "value": "Basic",
            "lang": "en"
        }
    ],
    "created": [
        {
            "value": "2020-06-09T12:39:24+00:00",
            "lang": "en",
            "format": "Y-m-d\\TH:i:sP"
        }
    ],
    "changed": [
        {
            "value": "2020-07-02T20:02:39+00:00",
            "lang": "en",
            "format": "Y-m-d\\TH:i:sP"
        }
    ],
    "promote": [
        {
            "value": false,
            "lang": "en"
        }
    ],
    "sticky": [
        {
            "value": true,
            "lang": "en"
        }
    ],
    "default_langcode": [
        {
            "value": true,
            "lang": "en"
        }
    ],
    "revision_translation_affected": [
        {
            "value": true,
            "lang": "en"
        }
    ],
    "metatag": [
        {
            "value": {
                "title": "Basic | ITCross Starter Kit",
                "canonical_url": "http:\/\/default\/product-catalog\/basic",
                "description": "Fusce aliquet lacus sapien, nec molestie lacus convallis finibus. Morbi placerat, eros ac blandit pulvinar, odio nisl vehicula turpis, vel sodales orci turpis eget felis."
            }
        }
    ],
    "path": [
        {
            "alias": "\/product-catalog\/basic",
            "pid": 22,
            "langcode": "en",
            "lang": "en"
        }
    ],
    "body": [
        {
            "value": "<p>Fusce aliquet lacus sapien, nec molestie lacus convallis finibus. Morbi placerat, eros ac blandit pulvinar, odio nisl vehicula turpis, vel sodales orci turpis eget felis.<\/p>\r\n",
            "format": "basic_html",
            "processed": "<p>Fusce aliquet lacus sapien, nec molestie lacus convallis finibus. Morbi placerat, eros ac blandit pulvinar, odio nisl vehicula turpis, vel sodales orci turpis eget felis.<\/p>",
            "summary": "",
            "lang": "en"
        }
    ],
    "field_old_price": [
        {
            "value": 13
        }
    ],
    "field_price": [
        {
            "value": 7.99
        }
    ],
    "field_product_weight": [
        {
            "value": 0
        }
    ]
}
