{
    "_links": {
        "self": {
            "href": "http:\/\/default\/product-catalog\/eq-black?_format=hal_json"
        },
        "type": {
            "href": "http:\/\/drupal.org\/rest\/type\/node\/product"
        },
        "http:\/\/drupal.org\/rest\/relation\/node\/product\/revision_uid": [
            {
                "href": "http:\/\/default\/user\/1?_format=hal_json"
            }
        ],
        "http:\/\/drupal.org\/rest\/relation\/node\/product\/uid": [
            {
                "href": "http:\/\/default\/user\/1?_format=hal_json",
                "lang": "en"
            }
        ],
        "http:\/\/drupal.org\/rest\/relation\/node\/product\/field_product_categories": [
            {
                "href": "http:\/\/default\/product-catalog-category\/organic?_format=hal_json"
            }
        ],
        "http:\/\/drupal.org\/rest\/relation\/node\/product\/field_product_image": [
            {
                "href": "http:\/\/default\/sites\/default\/files\/2020-06\/scratcher-camo-bucket-dc.jpg"
            }
        ]
    },
    "nid": [
        {
            "value": 184
        }
    ],
    "uuid": [
        {
            "value": "907ea806-3581-4690-8f08-27a47b3bc477"
        }
    ],
    "vid": [
        {
            "value": 184
        }
    ],
    "langcode": [
        {
            "value": "en",
            "lang": "en"
        }
    ],
    "type": [
        {
            "target_id": "product"
        }
    ],
    "revision_timestamp": [
        {
            "value": "2020-06-10T16:41:51+00:00",
            "format": "Y-m-d\\TH:i:sP"
        }
    ],
    "_embedded": {
        "http:\/\/drupal.org\/rest\/relation\/node\/product\/revision_uid": [
            {
                "_links": {
                    "self": {
                        "href": "http:\/\/default\/user\/1?_format=hal_json"
                    },
                    "type": {
                        "href": "http:\/\/drupal.org\/rest\/type\/user\/user"
                    }
                },
                "uuid": [
                    {
                        "value": "78fbb8c7-3fac-456b-bbbe-5acbf6cdbb4f"
                    }
                ]
            }
        ],
        "http:\/\/drupal.org\/rest\/relation\/node\/product\/uid": [
            {
                "_links": {
                    "self": {
                        "href": "http:\/\/default\/user\/1?_format=hal_json"
                    },
                    "type": {
                        "href": "http:\/\/drupal.org\/rest\/type\/user\/user"
                    }
                },
                "uuid": [
                    {
                        "value": "78fbb8c7-3fac-456b-bbbe-5acbf6cdbb4f"
                    }
                ],
                "lang": "en"
            }
        ],
        "http:\/\/drupal.org\/rest\/relation\/node\/product\/field_product_categories": [
            {
                "_links": {
                    "self": {
                        "href": "http:\/\/default\/product-catalog-category\/organic?_format=hal_json"
                    },
                    "type": {
                        "href": "http:\/\/drupal.org\/rest\/type\/taxonomy_term\/product_catalog_categories"
                    }
                },
                "uuid": [
                    {
                        "value": "7752fde6-90d3-4768-b422-33b830836530"
                    }
                ]
            }
        ],
        "http:\/\/drupal.org\/rest\/relation\/node\/product\/field_product_image": [
            {
                "_links": {
                    "self": {
                        "href": "http:\/\/default\/sites\/default\/files\/2020-06\/scratcher-camo-bucket-dc.jpg"
                    },
                    "type": {
                        "href": "http:\/\/drupal.org\/rest\/type\/file\/file"
                    }
                },
                "uuid": [
                    {
                        "value": "3d582c13-f6e9-4e94-80d5-e615f6641dc2"
                    }
                ]
            }
        ]
    },
    "status": [
        {
            "value": true,
            "lang": "en"
        }
    ],
    "title": [
        {
            "value": "EQ Black",
            "lang": "en"
        }
    ],
    "created": [
        {
            "value": "2020-06-10T16:40:06+00:00",
            "lang": "en",
            "format": "Y-m-d\\TH:i:sP"
        }
    ],
    "changed": [
        {
            "value": "2020-07-02T20:02:10+00:00",
            "lang": "en",
            "format": "Y-m-d\\TH:i:sP"
        }
    ],
    "promote": [
        {
            "value": false,
            "lang": "en"
        }
    ],
    "sticky": [
        {
            "value": false,
            "lang": "en"
        }
    ],
    "default_langcode": [
        {
            "value": true,
            "lang": "en"
        }
    ],
    "revision_translation_affected": [
        {
            "value": true,
            "lang": "en"
        }
    ],
    "metatag": [
        {
            "value": {
                "title": "EQ Black | ITCross Starter Kit",
                "canonical_url": "http:\/\/default\/product-catalog\/eq-black",
                "description": "Suspendisse potenti. Aenean et varius tellus, placerat euismod orci. Fusce condimentum volutpat vestibulum. Nam et elit vel mauris bibendum iaculis. Etiam facilisis rhoncus dolor, sit amet molestie odio pretium vel. Nulla elementum commodo luctus. Aliquam vel eleifend ipsum."
            }
        }
    ],
    "path": [
        {
            "alias": "\/product-catalog\/eq-black",
            "pid": 14,
            "langcode": "en",
            "lang": "en"
        }
    ],
    "body": [
        {
            "value": "<p>Suspendisse potenti. Aenean et varius tellus, placerat euismod orci. Fusce condimentum volutpat vestibulum. Nam et elit vel mauris bibendum iaculis. Etiam facilisis rhoncus dolor, sit amet molestie odio pretium vel. Nulla elementum commodo luctus. Aliquam vel eleifend ipsum.<\/p>\r\n",
            "format": "basic_html",
            "processed": "<p>Suspendisse potenti. Aenean et varius tellus, placerat euismod orci. Fusce condimentum volutpat vestibulum. Nam et elit vel mauris bibendum iaculis. Etiam facilisis rhoncus dolor, sit amet molestie odio pretium vel. Nulla elementum commodo luctus. Aliquam vel eleifend ipsum.<\/p>",
            "summary": "",
            "lang": "en"
        }
    ],
    "field_old_price": [
        {
            "value": 7
        }
    ],
    "field_price": [
        {
            "value": 5
        }
    ],
    "field_product_weight": [
        {
            "value": 0
        }
    ]
}
