{
    "_links": {
        "self": {
            "href": "http:\/\/default\/sites\/default\/files\/2020-06\/simon-plus-shetland-navy-ear-flap-mayser.jpg"
        },
        "type": {
            "href": "http:\/\/drupal.org\/rest\/type\/file\/file"
        },
        "http:\/\/drupal.org\/rest\/relation\/file\/file\/uid": [
            {
                "href": "http:\/\/default\/user\/1?_format=hal_json"
            }
        ]
    },
    "fid": [
        {
            "value": 131
        }
    ],
    "uuid": [
        {
            "value": "4d55fe32-9ba8-4607-9c75-d7ceb9f0fb17"
        }
    ],
    "langcode": [
        {
            "value": "en"
        }
    ],
    "_embedded": {
        "http:\/\/drupal.org\/rest\/relation\/file\/file\/uid": [
            {
                "_links": {
                    "self": {
                        "href": "http:\/\/default\/user\/1?_format=hal_json"
                    },
                    "type": {
                        "href": "http:\/\/drupal.org\/rest\/type\/user\/user"
                    }
                },
                "uuid": [
                    {
                        "value": "78fbb8c7-3fac-456b-bbbe-5acbf6cdbb4f"
                    }
                ]
            }
        ]
    },
    "filename": [
        {
            "value": "simon-plus-shetland-navy-ear-flap-mayser.jpg"
        }
    ],
    "uri": [
        {
            "value": "public:\/\/2020-06\/simon-plus-shetland-navy-ear-flap-mayser.jpg",
            "url": "\/sites\/default\/files\/2020-06\/simon-plus-shetland-navy-ear-flap-mayser.jpg"
        }
    ],
    "filemime": [
        {
            "value": "image\/jpeg"
        }
    ],
    "filesize": [
        {
            "value": 83782
        }
    ],
    "status": [
        {
            "value": true
        }
    ],
    "created": [
        {
            "value": "2020-06-10T16:41:48+00:00",
            "format": "Y-m-d\\TH:i:sP"
        }
    ],
    "changed": [
        {
            "value": "2020-06-10T16:43:46+00:00",
            "format": "Y-m-d\\TH:i:sP"
        }
    ]
}