{
    "_links": {
        "self": {
            "href": "http:\/\/default\/sites\/default\/files\/2020-06\/4.jpg"
        },
        "type": {
            "href": "http:\/\/drupal.org\/rest\/type\/file\/file"
        },
        "http:\/\/drupal.org\/rest\/relation\/file\/file\/uid": [
            {
                "href": "http:\/\/default\/user\/1?_format=hal_json"
            }
        ]
    },
    "fid": [
        {
            "value": 122
        }
    ],
    "uuid": [
        {
            "value": "8d39321c-6559-498a-b24d-7a7e175c1ed9"
        }
    ],
    "langcode": [
        {
            "value": "en"
        }
    ],
    "_embedded": {
        "http:\/\/drupal.org\/rest\/relation\/file\/file\/uid": [
            {
                "_links": {
                    "self": {
                        "href": "http:\/\/default\/user\/1?_format=hal_json"
                    },
                    "type": {
                        "href": "http:\/\/drupal.org\/rest\/type\/user\/user"
                    }
                },
                "uuid": [
                    {
                        "value": "78fbb8c7-3fac-456b-bbbe-5acbf6cdbb4f"
                    }
                ]
            }
        ]
    },
    "filename": [
        {
            "value": "4.jpg"
        }
    ],
    "uri": [
        {
            "value": "public:\/\/2020-06\/4.jpg",
            "url": "\/sites\/default\/files\/2020-06\/4.jpg"
        }
    ],
    "filemime": [
        {
            "value": "image\/jpeg"
        }
    ],
    "filesize": [
        {
            "value": 57691
        }
    ],
    "status": [
        {
            "value": true
        }
    ],
    "created": [
        {
            "value": "2020-06-09T12:41:43+00:00",
            "format": "Y-m-d\\TH:i:sP"
        }
    ],
    "changed": [
        {
            "value": "2020-06-09T12:41:58+00:00",
            "format": "Y-m-d\\TH:i:sP"
        }
    ]
}