{
    "_links": {
        "self": {
            "href": "http:\/\/default\/team\/john-doe?_format=hal_json"
        },
        "type": {
            "href": "http:\/\/drupal.org\/rest\/type\/node\/person"
        },
        "http:\/\/drupal.org\/rest\/relation\/node\/person\/revision_uid": [
            {
                "href": "http:\/\/default\/user\/1?_format=hal_json"
            }
        ],
        "http:\/\/drupal.org\/rest\/relation\/node\/person\/uid": [
            {
                "href": "http:\/\/default\/user\/1?_format=hal_json",
                "lang": "en"
            }
        ],
        "http:\/\/drupal.org\/rest\/relation\/node\/person\/field_photo": [
            {
                "href": "http:\/\/default\/sites\/default\/files\/2020-06\/3_0.jpg"
            }
        ]
    },
    "nid": [
        {
            "value": 90
        }
    ],
    "uuid": [
        {
            "value": "a0d000e0-c5e0-402e-acab-257bef697396"
        }
    ],
    "vid": [
        {
            "value": 90
        }
    ],
    "langcode": [
        {
            "value": "en",
            "lang": "en"
        }
    ],
    "type": [
        {
            "target_id": "person"
        }
    ],
    "revision_timestamp": [
        {
            "value": "2020-06-12T09:46:32+00:00",
            "format": "Y-m-d\\TH:i:sP"
        }
    ],
    "_embedded": {
        "http:\/\/drupal.org\/rest\/relation\/node\/person\/revision_uid": [
            {
                "_links": {
                    "self": {
                        "href": "http:\/\/default\/user\/1?_format=hal_json"
                    },
                    "type": {
                        "href": "http:\/\/drupal.org\/rest\/type\/user\/user"
                    }
                },
                "uuid": [
                    {
                        "value": "3390327d-cec3-4296-bac3-20a53ff2b632"
                    }
                ]
            }
        ],
        "http:\/\/drupal.org\/rest\/relation\/node\/person\/uid": [
            {
                "_links": {
                    "self": {
                        "href": "http:\/\/default\/user\/1?_format=hal_json"
                    },
                    "type": {
                        "href": "http:\/\/drupal.org\/rest\/type\/user\/user"
                    }
                },
                "uuid": [
                    {
                        "value": "3390327d-cec3-4296-bac3-20a53ff2b632"
                    }
                ],
                "lang": "en"
            }
        ],
        "http:\/\/drupal.org\/rest\/relation\/node\/person\/field_photo": [
            {
                "_links": {
                    "self": {
                        "href": "http:\/\/default\/sites\/default\/files\/2020-06\/3_0.jpg"
                    },
                    "type": {
                        "href": "http:\/\/drupal.org\/rest\/type\/file\/file"
                    }
                },
                "uuid": [
                    {
                        "value": "438daa60-1853-41df-bd62-fb8e0f0aba16"
                    }
                ]
            }
        ]
    },
    "status": [
        {
            "value": true,
            "lang": "en"
        }
    ],
    "title": [
        {
            "value": "John Doe",
            "lang": "en"
        }
    ],
    "created": [
        {
            "value": "2020-06-12T09:45:09+00:00",
            "lang": "en",
            "format": "Y-m-d\\TH:i:sP"
        }
    ],
    "changed": [
        {
            "value": "2020-06-12T12:28:06+00:00",
            "lang": "en",
            "format": "Y-m-d\\TH:i:sP"
        }
    ],
    "promote": [
        {
            "value": false,
            "lang": "en"
        }
    ],
    "sticky": [
        {
            "value": false,
            "lang": "en"
        }
    ],
    "default_langcode": [
        {
            "value": true,
            "lang": "en"
        }
    ],
    "revision_translation_affected": [
        {
            "value": true,
            "lang": "en"
        }
    ],
    "metatag": [
        {
            "value": {
                "title": "John Doe | ITCross Starter Kit",
                "canonical_url": "http:\/\/default\/team\/john-doe"
            }
        }
    ],
    "path": [
        {
            "alias": "\/team\/john-doe",
            "pid": 92,
            "langcode": "en",
            "lang": "en"
        }
    ],
    "field_brief": [
        {
            "value": "Carbon emissions reductions giving, legitimize amplify non-partisan Aga Khan. Policy dialogue assessment expert free-speech cornerstone disruptor freedom. Cesar Chavez empower."
        }
    ],
    "field_displayed_name": [
        {
            "value": "John Doe"
        }
    ],
    "field_position": [
        {
            "value": "CEO"
        }
    ],
    "field_references": [
        {
            "value": "<a href=\"#\" class=\"social-icon inline-block si-small si-light si-rounded si-facebook\">\r\n\t<i class=\"icon-facebook\"><\/i>\r\n\t<i class=\"icon-facebook\"><\/i>\r\n<\/a>\r\n<a href=\"#\" class=\"social-icon inline-block si-small si-light si-rounded si-twitter\">\r\n\t<i class=\"icon-twitter\"><\/i>\r\n\t<i class=\"icon-twitter\"><\/i>\r\n<\/a>\r\n<a href=\"#\" class=\"social-icon inline-block si-small si-light si-rounded si-gplus\">\r\n\t<i class=\"icon-gplus\"><\/i>\r\n\t<i class=\"icon-gplus\"><\/i>\r\n<\/a>",
            "format": "unrestricted_html",
            "processed": "<a href=\"#\" class=\"social-icon inline-block si-small si-light si-rounded si-facebook\">\n\t<i class=\"icon-facebook\"><\/i>\n\t<i class=\"icon-facebook\"><\/i>\n<\/a>\n<a href=\"#\" class=\"social-icon inline-block si-small si-light si-rounded si-twitter\">\n\t<i class=\"icon-twitter\"><\/i>\n\t<i class=\"icon-twitter\"><\/i>\n<\/a>\n<a href=\"#\" class=\"social-icon inline-block si-small si-light si-rounded si-gplus\">\n\t<i class=\"icon-gplus\"><\/i>\n\t<i class=\"icon-gplus\"><\/i>\n<\/a>"
        }
    ]
}
