{
    "_links": {
        "self": {
            "href": "http:\/\/default\/sites\/default\/files\/2020-06\/333.png"
        },
        "type": {
            "href": "http:\/\/drupal.org\/rest\/type\/file\/file"
        },
        "http:\/\/drupal.org\/rest\/relation\/file\/file\/uid": [
            {
                "href": "http:\/\/default\/user\/1?_format=hal_json"
            }
        ]
    },
    "fid": [
        {
            "value": 137
        }
    ],
    "uuid": [
        {
            "value": "e34deb8b-3962-4f17-8b29-4679c4cf1da7"
        }
    ],
    "langcode": [
        {
            "value": "en"
        }
    ],
    "_embedded": {
        "http:\/\/drupal.org\/rest\/relation\/file\/file\/uid": [
            {
                "_links": {
                    "self": {
                        "href": "http:\/\/default\/user\/1?_format=hal_json"
                    },
                    "type": {
                        "href": "http:\/\/drupal.org\/rest\/type\/user\/user"
                    }
                },
                "uuid": [
                    {
                        "value": "3390327d-cec3-4296-bac3-20a53ff2b632"
                    }
                ]
            }
        ]
    },
    "filename": [
        {
            "value": "333.png"
        }
    ],
    "uri": [
        {
            "value": "public:\/\/2020-06\/333.png",
            "url": "\/sites\/default\/files\/2020-06\/333.png"
        }
    ],
    "filemime": [
        {
            "value": "image\/png"
        }
    ],
    "filesize": [
        {
            "value": 2799
        }
    ],
    "status": [
        {
            "value": true
        }
    ],
    "created": [
        {
            "value": "2020-06-12T09:38:35+00:00",
            "format": "Y-m-d\\TH:i:sP"
        }
    ],
    "changed": [
        {
            "value": "2020-06-12T09:39:33+00:00",
            "format": "Y-m-d\\TH:i:sP"
        }
    ]
}