{
    "_links": {
        "self": {
            "href": "http:\/\/default\/admin\/structure\/menu\/item\/15\/edit?_format=hal_json"
        },
        "type": {
            "href": "http:\/\/drupal.org\/rest\/type\/menu_link_content\/menu_link_content"
        }
    },
    "id": [
        {
            "value": 38
        }
    ],
    "uuid": [
        {
            "value": "d3ed2d6c-0029-429a-9639-466837fc689e"
        }
    ],
    "revision_id": [
        {
            "value": 38
        }
    ],
    "langcode": [
        {
            "value": "en",
            "lang": "en"
        }
    ],
    "bundle": [
        {
            "value": "menu_link_content"
        }
    ],
    "revision_created": [
        {
            "value": "2020-06-29T08:27:53+00:00",
            "format": "Y-m-d\\TH:i:sP"
        }
    ],
    "enabled": [
        {
            "value": true
        }
    ],
    "title": [
        {
            "value": "Basic site information",
            "lang": "en"
        }
    ],
    "menu_name": [
        {
            "value": "admin-menu"
        }
    ],
    "link": [
        {
            "uri": "internal:\/admin\/config\/system\/site-information",
            "title": "",
            "options": []
        }
    ],
    "external": [
        {
            "value": false
        }
    ],
    "rediscover": [
        {
            "value": true
        }
    ],
    "weight": [
        {
            "value": 0
        }
    ],
    "expanded": [
        {
            "value": false
        }
    ],
    "changed": [
        {
            "value": "2020-06-29T08:27:53+00:00",
            "lang": "en",
            "format": "Y-m-d\\TH:i:sP"
        }
    ],
    "default_langcode": [
        {
            "value": true,
            "lang": "en"
        }
    ],
    "revision_translation_affected": [
        {
            "value": true,
            "lang": "en"
        }
    ],
    "metatag": [
        {
            "value": {
                "title": "| ITCross Starter Kit",
                "canonical_url": "http:\/\/default\/itcross-starter-kit"
            }
        }
    ]
}
