{
    "_links": {
        "self": {
            "href": "http:\/\/default\/service\/marketing?_format=hal_json"
        },
        "type": {
            "href": "http:\/\/drupal.org\/rest\/type\/node\/service"
        },
        "http:\/\/drupal.org\/rest\/relation\/node\/service\/revision_uid": [
            {
                "href": "http:\/\/default\/user\/1?_format=hal_json"
            }
        ],
        "http:\/\/drupal.org\/rest\/relation\/node\/service\/uid": [
            {
                "href": "http:\/\/default\/user\/1?_format=hal_json",
                "lang": "en"
            }
        ],
        "http:\/\/drupal.org\/rest\/relation\/node\/service\/field_service_image": [
            {
                "href": "http:\/\/default\/sites\/default\/files\/2020-06\/333.png"
            },
            {
                "href": "http:\/\/default\/sites\/default\/files\/2020-06\/222.png"
            },
            {
                "href": "http:\/\/default\/sites\/default\/files\/2020-06\/111.png"
            }
        ]
    },
    "nid": [
        {
            "value": 89
        }
    ],
    "uuid": [
        {
            "value": "946921de-9157-4126-ba06-11cd65772bad"
        }
    ],
    "vid": [
        {
            "value": 89
        }
    ],
    "langcode": [
        {
            "value": "en",
            "lang": "en"
        }
    ],
    "type": [
        {
            "target_id": "service"
        }
    ],
    "revision_timestamp": [
        {
            "value": "2020-06-12T09:38:35+00:00",
            "format": "Y-m-d\\TH:i:sP"
        }
    ],
    "_embedded": {
        "http:\/\/drupal.org\/rest\/relation\/node\/service\/revision_uid": [
            {
                "_links": {
                    "self": {
                        "href": "http:\/\/default\/user\/1?_format=hal_json"
                    },
                    "type": {
                        "href": "http:\/\/drupal.org\/rest\/type\/user\/user"
                    }
                },
                "uuid": [
                    {
                        "value": "3390327d-cec3-4296-bac3-20a53ff2b632"
                    }
                ]
            }
        ],
        "http:\/\/drupal.org\/rest\/relation\/node\/service\/uid": [
            {
                "_links": {
                    "self": {
                        "href": "http:\/\/default\/user\/1?_format=hal_json"
                    },
                    "type": {
                        "href": "http:\/\/drupal.org\/rest\/type\/user\/user"
                    }
                },
                "uuid": [
                    {
                        "value": "3390327d-cec3-4296-bac3-20a53ff2b632"
                    }
                ],
                "lang": "en"
            }
        ],
        "http:\/\/drupal.org\/rest\/relation\/node\/service\/field_service_image": [
            {
                "_links": {
                    "self": {
                        "href": "http:\/\/default\/sites\/default\/files\/2020-06\/333.png"
                    },
                    "type": {
                        "href": "http:\/\/drupal.org\/rest\/type\/file\/file"
                    }
                },
                "uuid": [
                    {
                        "value": "e34deb8b-3962-4f17-8b29-4679c4cf1da7"
                    }
                ]
            },
            {
                "_links": {
                    "self": {
                        "href": "http:\/\/default\/sites\/default\/files\/2020-06\/222.png"
                    },
                    "type": {
                        "href": "http:\/\/drupal.org\/rest\/type\/file\/file"
                    }
                },
                "uuid": [
                    {
                        "value": "3bb59e82-71bf-4924-99a4-dd8425c2fe72"
                    }
                ]
            },
            {
                "_links": {
                    "self": {
                        "href": "http:\/\/default\/sites\/default\/files\/2020-06\/111.png"
                    },
                    "type": {
                        "href": "http:\/\/drupal.org\/rest\/type\/file\/file"
                    }
                },
                "uuid": [
                    {
                        "value": "2aaae94b-5739-46dd-b167-212725203055"
                    }
                ]
            }
        ]
    },
    "status": [
        {
            "value": true,
            "lang": "en"
        }
    ],
    "title": [
        {
            "value": "Marketing",
            "lang": "en"
        }
    ],
    "created": [
        {
            "value": "2020-06-12T09:38:04+00:00",
            "lang": "en",
            "format": "Y-m-d\\TH:i:sP"
        }
    ],
    "changed": [
        {
            "value": "2020-06-12T09:39:33+00:00",
            "lang": "en",
            "format": "Y-m-d\\TH:i:sP"
        }
    ],
    "promote": [
        {
            "value": false,
            "lang": "en"
        }
    ],
    "sticky": [
        {
            "value": false,
            "lang": "en"
        }
    ],
    "default_langcode": [
        {
            "value": true,
            "lang": "en"
        }
    ],
    "revision_translation_affected": [
        {
            "value": true,
            "lang": "en"
        }
    ],
    "metatag": [
        {
            "value": {
                "title": "Marketing | ITCross Starter Kit",
                "canonical_url": "http:\/\/default\/service\/marketing",
                "description": "Aliquam sagittis neque in lectus semper, nec elementum arcu scelerisque. Curabitur ullamcorper auctor mauris, placerat fermentum.\u00a0Aliquam sagittis neque in lectus semper, nec elementum arcu scelerisque. Curabitur ullamcorper auctor mauris, placerat fermentum.\u00a0Aliquam sagittis neque in lectus semper, nec elementum arcu scelerisque. Curabitur ullamcorper auctor mauris, placerat fermentum.\u00a0Aliquam sagittis neque in lectus semper, nec elementum arcu scelerisque. Curabitur ullamcorper auctor mauris, placerat fermentum.\u00a0Aliquam sagittis neque in lectus semper, nec elementum arcu scelerisque."
            }
        }
    ],
    "path": [
        {
            "alias": "\/service\/marketing",
            "pid": 91,
            "langcode": "en",
            "lang": "en"
        }
    ],
    "body": [
        {
            "value": "<p>Aliquam sagittis neque in lectus semper, nec elementum arcu scelerisque. Curabitur ullamcorper auctor mauris, placerat fermentum.&nbsp;Aliquam sagittis neque in lectus semper, nec elementum arcu scelerisque. Curabitur ullamcorper auctor mauris, placerat fermentum.&nbsp;Aliquam sagittis neque in lectus semper, nec elementum arcu scelerisque. Curabitur ullamcorper auctor mauris, placerat fermentum.&nbsp;Aliquam sagittis neque in lectus semper, nec elementum arcu scelerisque. Curabitur ullamcorper auctor mauris, placerat fermentum.&nbsp;Aliquam sagittis neque in lectus semper, nec elementum arcu scelerisque. Curabitur ullamcorper auctor mauris, placerat fermentum. v&nbsp;Aliquam sagittis neque in lectus semper, nec elementum arcu scelerisque. Curabitur ullamcorper auctor mauris, placerat fermentum.Aliquam sagittis neque in lectus semper, nec elementum arcu scelerisque. Curabitur ullamcorper auctor mauris, placerat fermentum.&nbsp;Aliquam sagittis neque in lectus semper, nec elementum arcu scelerisque. Curabitur ullamcorper auctor mauris, placerat fermentum.&nbsp;Aliquam sagittis neque in lectus semper, nec elementum arcu scelerisque. Curabitur ullamcorper auctor mauris, placerat fermentum.<\/p>\r\n",
            "format": "basic_html",
            "processed": "<p>Aliquam sagittis neque in lectus semper, nec elementum arcu scelerisque. Curabitur ullamcorper auctor mauris, placerat fermentum.\u00a0Aliquam sagittis neque in lectus semper, nec elementum arcu scelerisque. Curabitur ullamcorper auctor mauris, placerat fermentum.\u00a0Aliquam sagittis neque in lectus semper, nec elementum arcu scelerisque. Curabitur ullamcorper auctor mauris, placerat fermentum.\u00a0Aliquam sagittis neque in lectus semper, nec elementum arcu scelerisque. Curabitur ullamcorper auctor mauris, placerat fermentum.\u00a0Aliquam sagittis neque in lectus semper, nec elementum arcu scelerisque. Curabitur ullamcorper auctor mauris, placerat fermentum. v\u00a0Aliquam sagittis neque in lectus semper, nec elementum arcu scelerisque. Curabitur ullamcorper auctor mauris, placerat fermentum.Aliquam sagittis neque in lectus semper, nec elementum arcu scelerisque. Curabitur ullamcorper auctor mauris, placerat fermentum.\u00a0Aliquam sagittis neque in lectus semper, nec elementum arcu scelerisque. Curabitur ullamcorper auctor mauris, placerat fermentum.\u00a0Aliquam sagittis neque in lectus semper, nec elementum arcu scelerisque. Curabitur ullamcorper auctor mauris, placerat fermentum.<\/p>",
            "summary": "",
            "lang": "en"
        }
    ],
    "field_service_price": [
        {
            "value": 500
        }
    ],
    "field_service_weight": [
        {
            "value": 0
        }
    ]
}