{
    "_links": {
        "self": {
            "href": "http:\/\/default\/blog\/rutrum-convallis-purus-mi-blandit-sem?_format=hal_json"
        },
        "type": {
            "href": "http:\/\/drupal.org\/rest\/type\/node\/article"
        },
        "http:\/\/drupal.org\/rest\/relation\/node\/article\/revision_uid": [
            {
                "href": "http:\/\/default\/user\/3?_format=hal_json"
            }
        ],
        "http:\/\/drupal.org\/rest\/relation\/node\/article\/uid": [
            {
                "href": "http:\/\/default\/user\/3?_format=hal_json",
                "lang": "zxx"
            }
        ],
        "http:\/\/drupal.org\/rest\/relation\/node\/article\/field_article_categories": [
            {
                "href": "http:\/\/default\/category\/case-report?_format=hal_json"
            }
        ],
        "http:\/\/drupal.org\/rest\/relation\/node\/article\/field_article_type": [
            {
                "href": "http:\/\/default\/taxonomy\/term\/3?_format=hal_json"
            }
        ],
        "http:\/\/drupal.org\/rest\/relation\/node\/article\/field_image": [
            {
                "href": "http:\/\/default\/sites\/default\/files\/dummyfile4416711433_20af415f38_o.jpg.jpg",
                "lang": "zxx"
            }
        ],
        "http:\/\/drupal.org\/rest\/relation\/node\/article\/field_tags": [
            {
                "href": "http:\/\/default\/tag\/events?_format=hal_json",
                "lang": "zxx"
            }
        ]
    },
    "nid": [
        {
            "value": 13
        }
    ],
    "uuid": [
        {
            "value": "6047d3dc-4a40-4969-b11a-792d87b6b304"
        }
    ],
    "vid": [
        {
            "value": 13
        }
    ],
    "langcode": [
        {
            "value": "zxx",
            "lang": "zxx"
        }
    ],
    "type": [
        {
            "target_id": "article"
        }
    ],
    "revision_timestamp": [
        {
            "value": "2020-05-01T15:14:55+00:00",
            "format": "Y-m-d\\TH:i:sP"
        }
    ],
    "_embedded": {
        "http:\/\/drupal.org\/rest\/relation\/node\/article\/revision_uid": [
            {
                "_links": {
                    "self": {
                        "href": "http:\/\/default\/user\/3?_format=hal_json"
                    },
                    "type": {
                        "href": "http:\/\/drupal.org\/rest\/type\/user\/user"
                    }
                },
                "uuid": [
                    {
                        "value": "88b8f7ac-8875-4b8e-b57d-9db84aa0f7bd"
                    }
                ]
            }
        ],
        "http:\/\/drupal.org\/rest\/relation\/node\/article\/uid": [
            {
                "_links": {
                    "self": {
                        "href": "http:\/\/default\/user\/3?_format=hal_json"
                    },
                    "type": {
                        "href": "http:\/\/drupal.org\/rest\/type\/user\/user"
                    }
                },
                "uuid": [
                    {
                        "value": "88b8f7ac-8875-4b8e-b57d-9db84aa0f7bd"
                    }
                ],
                "lang": "zxx"
            }
        ],
        "http:\/\/drupal.org\/rest\/relation\/node\/article\/field_article_categories": [
            {
                "_links": {
                    "self": {
                        "href": "http:\/\/default\/category\/case-report?_format=hal_json"
                    },
                    "type": {
                        "href": "http:\/\/drupal.org\/rest\/type\/taxonomy_term\/article_categories"
                    }
                },
                "uuid": [
                    {
                        "value": "2a1f3b84-2811-4532-a811-5c1cff247e9b"
                    }
                ]
            }
        ],
        "http:\/\/drupal.org\/rest\/relation\/node\/article\/field_article_type": [
            {
                "_links": {
                    "self": {
                        "href": "http:\/\/default\/taxonomy\/term\/3?_format=hal_json"
                    },
                    "type": {
                        "href": "http:\/\/drupal.org\/rest\/type\/taxonomy_term\/article_type"
                    }
                },
                "uuid": [
                    {
                        "value": "4bbec976-0c46-475d-b7c1-18e94a59ec3d"
                    }
                ]
            }
        ],
        "http:\/\/drupal.org\/rest\/relation\/node\/article\/field_image": [
            {
                "_links": {
                    "self": {
                        "href": "http:\/\/default\/sites\/default\/files\/dummyfile4416711433_20af415f38_o.jpg.jpg"
                    },
                    "type": {
                        "href": "http:\/\/drupal.org\/rest\/type\/file\/file"
                    }
                },
                "uuid": [
                    {
                        "value": "ae038f81-a47c-46f9-8283-c019cc8bba3c"
                    }
                ],
                "lang": "zxx"
            }
        ],
        "http:\/\/drupal.org\/rest\/relation\/node\/article\/field_tags": [
            {
                "_links": {
                    "self": {
                        "href": "http:\/\/default\/tag\/events?_format=hal_json"
                    },
                    "type": {
                        "href": "http:\/\/drupal.org\/rest\/type\/taxonomy_term\/tags"
                    }
                },
                "uuid": [
                    {
                        "value": "5129a20f-3487-486a-a5d1-7206b6ab9ee1"
                    }
                ],
                "lang": "zxx"
            }
        ]
    },
    "status": [
        {
            "value": true,
            "lang": "zxx"
        }
    ],
    "title": [
        {
            "value": "Rutrum convallis, purus mi blandit sem",
            "lang": "zxx"
        }
    ],
    "created": [
        {
            "value": "2020-04-29T07:50:39+00:00",
            "lang": "zxx",
            "format": "Y-m-d\\TH:i:sP"
        }
    ],
    "changed": [
        {
            "value": "2020-05-01T15:58:11+00:00",
            "lang": "zxx",
            "format": "Y-m-d\\TH:i:sP"
        }
    ],
    "promote": [
        {
            "value": false,
            "lang": "zxx"
        }
    ],
    "sticky": [
        {
            "value": false,
            "lang": "zxx"
        }
    ],
    "default_langcode": [
        {
            "value": true,
            "lang": "zxx"
        }
    ],
    "revision_translation_affected": [
        {
            "value": true,
            "lang": "zxx"
        }
    ],
    "metatag": [
        {
            "value": {
                "title": "Rutrum convallis, purus mi blandit sem | ITCross Starter Kit",
                "canonical_url": "http:\/\/default\/blog\/rutrum-convallis-purus-mi-blandit-sem",
                "description": "Curabitur non mollis enim. Pellentesque quis diam non nisi fringilla dignissim eu consectetur ligula. Maecenas mollis tortor a felis sollicitudin, eu suscipit magna dapibus. Vestibulum ac vestibulum nunc, id pulvinar arcu. Praesent venenatis porta dolor, at lacinia metus venenatis a. Nulla tincidunt odio quis sem commodo, eu egestas augue sollicitudin. Sed tincidunt turpis at porta suscipit. Etiam sed ex ac lacus mollis faucibus. Nullam posuere neque eu pellentesque hendrerit. Duis libero sem, fermentum id nulla nec, sagittis vestibulum sapien. Maecenas consequat, nibh id rutrum convallis, purus mi blandit sem, et bibendum nulla ante elementum dolor. Vivamus purus augue, tempor vel ornare eget, luctus volutpat lorem. Phasellus at ipsum neque."
            }
        }
    ],
    "path": [
        {
            "alias": "\/blog\/rutrum-convallis-purus-mi-blandit-sem",
            "pid": 26,
            "langcode": "und",
            "lang": "zxx"
        }
    ],
    "body": [
        {
            "value": "<p>Donec vehicula, dolor in aliquam malesuada, nibh arcu convallis eros, id rhoncus turpis leo id felis. Pellentesque pellentesque molestie facilisis. Aenean lectus velit, vehicula sed velit sed, rhoncus scelerisque lorem. Sed id euismod libero, sit amet venenatis sem. Aenean ac est at felis scelerisque bibendum id at erat. Donec at velit nisl. Maecenas in lobortis turpis. Quisque in blandit tellus. Ut elementum congue sapien. Ut commodo lacus ac eleifend ultrices. Donec in neque tempor, vulputate tellus sed, venenatis erat. Phasellus tristique, justo at dictum suscipit, mi enim viverra nulla, nec suscipit turpis urna quis dui. Integer placerat justo ut justo condimentum, id consequat velit tristique. Fusce bibendum egestas orci vitae condimentum. Nam venenatis quam mi, sit amet fringilla risus consequat a. Vivamus magna erat, luctus sed vehicula eget, porttitor vel dolor.<\/p>\r\n\r\n<p><strong>In a tellus nec urna hendrerit eleifend luctus eget enim. <\/strong>Pellentesque vitae ligula vehicula, convallis mauris eu, sodales metus. Curabitur ac finibus magna, id ultricies odio. Etiam mattis at est vel luctus. Maecenas tristique suscipit felis, sed lobortis odio porta vitae. Nulla luctus malesuada lorem. Sed eget lorem lectus. Ut facilisis dictum convallis.<\/p>\r\n\r\n<p>Curabitur non mollis enim. Pellentesque quis diam non nisi fringilla dignissim eu consectetur ligula. Maecenas mollis tortor a felis sollicitudin, eu suscipit magna dapibus. Vestibulum ac vestibulum nunc, id pulvinar arcu. Praesent venenatis porta dolor, at lacinia metus venenatis a. Nulla tincidunt odio quis sem commodo, eu egestas augue sollicitudin. Sed tincidunt turpis at porta suscipit. Etiam sed ex ac lacus mollis faucibus. Nullam posuere neque eu pellentesque hendrerit. Duis libero sem, fermentum id nulla nec, sagittis vestibulum sapien. Maecenas consequat, nibh id rutrum convallis, purus mi blandit sem, et bibendum nulla ante elementum dolor. Vivamus purus augue, tempor vel ornare eget, luctus volutpat lorem. Phasellus at ipsum neque.<\/p>\r\n\r\n<p>Nulla tempor velit id tortor sollicitudin, at rhoncus augue congue. Aliquam hendrerit sagittis ullamcorper. Mauris in lacinia tellus. Sed sagittis nisi massa, varius ullamcorper diam venenatis id. Pellentesque non bibendum orci. Nullam ut luctus diam. Nunc eleifend in sem at fermentum. Cras ultrices eros at augue ultricies auctor. Ut sodales feugiat tempor. Proin neque eros, mattis sit amet dictum et, suscipit quis nisi. Nunc molestie, nisl et accumsan feugiat, leo leo malesuada metus, sed rhoncus dui est sit amet lacus. Cras quis turpis consectetur, finibus lorem in, venenatis nibh. Vestibulum id vestibulum ex. Donec sagittis eget lorem nec lacinia.<\/p>\r\n",
            "format": "full_html",
            "processed": "<p>Donec vehicula, dolor in aliquam malesuada, nibh arcu convallis eros, id rhoncus turpis leo id felis. Pellentesque pellentesque molestie facilisis. Aenean lectus velit, vehicula sed velit sed, rhoncus scelerisque lorem. Sed id euismod libero, sit amet venenatis sem. Aenean ac est at felis scelerisque bibendum id at erat. Donec at velit nisl. Maecenas in lobortis turpis. Quisque in blandit tellus. Ut elementum congue sapien. Ut commodo lacus ac eleifend ultrices. Donec in neque tempor, vulputate tellus sed, venenatis erat. Phasellus tristique, justo at dictum suscipit, mi enim viverra nulla, nec suscipit turpis urna quis dui. Integer placerat justo ut justo condimentum, id consequat velit tristique. Fusce bibendum egestas orci vitae condimentum. Nam venenatis quam mi, sit amet fringilla risus consequat a. Vivamus magna erat, luctus sed vehicula eget, porttitor vel dolor.<\/p>\n\n<p><strong>In a tellus nec urna hendrerit eleifend luctus eget enim. <\/strong>Pellentesque vitae ligula vehicula, convallis mauris eu, sodales metus. Curabitur ac finibus magna, id ultricies odio. Etiam mattis at est vel luctus. Maecenas tristique suscipit felis, sed lobortis odio porta vitae. Nulla luctus malesuada lorem. Sed eget lorem lectus. Ut facilisis dictum convallis.<\/p>\n\n<p>Curabitur non mollis enim. Pellentesque quis diam non nisi fringilla dignissim eu consectetur ligula. Maecenas mollis tortor a felis sollicitudin, eu suscipit magna dapibus. Vestibulum ac vestibulum nunc, id pulvinar arcu. Praesent venenatis porta dolor, at lacinia metus venenatis a. Nulla tincidunt odio quis sem commodo, eu egestas augue sollicitudin. Sed tincidunt turpis at porta suscipit. Etiam sed ex ac lacus mollis faucibus. Nullam posuere neque eu pellentesque hendrerit. Duis libero sem, fermentum id nulla nec, sagittis vestibulum sapien. Maecenas consequat, nibh id rutrum convallis, purus mi blandit sem, et bibendum nulla ante elementum dolor. Vivamus purus augue, tempor vel ornare eget, luctus volutpat lorem. Phasellus at ipsum neque.<\/p>\n\n<p>Nulla tempor velit id tortor sollicitudin, at rhoncus augue congue. Aliquam hendrerit sagittis ullamcorper. Mauris in lacinia tellus. Sed sagittis nisi massa, varius ullamcorper diam venenatis id. Pellentesque non bibendum orci. Nullam ut luctus diam. Nunc eleifend in sem at fermentum. Cras ultrices eros at augue ultricies auctor. Ut sodales feugiat tempor. Proin neque eros, mattis sit amet dictum et, suscipit quis nisi. Nunc molestie, nisl et accumsan feugiat, leo leo malesuada metus, sed rhoncus dui est sit amet lacus. Cras quis turpis consectetur, finibus lorem in, venenatis nibh. Vestibulum id vestibulum ex. Donec sagittis eget lorem nec lacinia.<\/p>\n",
            "summary": "Curabitur non mollis enim. Pellentesque quis diam non nisi fringilla dignissim eu consectetur ligula. Maecenas mollis tortor a felis sollicitudin, eu suscipit magna dapibus. Vestibulum ac vestibulum nunc, id pulvinar arcu. Praesent venenatis porta dolor, at lacinia metus venenatis a. Nulla tincidunt odio quis sem commodo, eu egestas augue sollicitudin. Sed tincidunt turpis at porta suscipit. Etiam sed ex ac lacus mollis faucibus. Nullam posuere neque eu pellentesque hendrerit. Duis libero sem, fermentum id nulla nec, sagittis vestibulum sapien. Maecenas consequat, nibh id rutrum convallis, purus mi blandit sem, et bibendum nulla ante elementum dolor. Vivamus purus augue, tempor vel ornare eget, luctus volutpat lorem. Phasellus at ipsum neque.",
            "lang": "zxx"
        }
    ],
    "comment": [
        {
            "status": 0,
            "cid": 0,
            "last_comment_timestamp": 1588346095,
            "last_comment_name": null,
            "last_comment_uid": 3,
            "comment_count": 0,
            "lang": "zxx"
        }
    ]
}