{
    "_links": {
        "self": {
            "href": "http:\/\/default\/article\/morbi-fringilla-sed-ipsum-placerat-dykdnmf?_format=hal_json"
        },
        "type": {
            "href": "http:\/\/drupal.org\/rest\/type\/node\/article"
        },
        "http:\/\/drupal.org\/rest\/relation\/node\/article\/revision_uid": [
            {
                "href": "http:\/\/default\/user\/0?_format=hal_json"
            }
        ],
        "http:\/\/drupal.org\/rest\/relation\/node\/article\/uid": [
            {
                "href": "http:\/\/default\/user\/0?_format=hal_json",
                "lang": "und"
            }
        ],
        "http:\/\/drupal.org\/rest\/relation\/node\/article\/field_article_categories": [
            {
                "href": "http:\/\/default\/category\/getting-started?_format=hal_json"
            }
        ],
        "http:\/\/drupal.org\/rest\/relation\/node\/article\/field_article_type": [
            {
                "href": "http:\/\/default\/taxonomy\/term\/1?_format=hal_json"
            }
        ],
        "http:\/\/drupal.org\/rest\/relation\/node\/article\/field_image": [
            {
                "href": "http:\/\/default\/sites\/default\/files\/2020-05\/card-reader-payment.jpg",
                "lang": "und"
            }
        ],
        "http:\/\/drupal.org\/rest\/relation\/node\/article\/field_tags": [
            {
                "href": "http:\/\/default\/tag\/people?_format=hal_json",
                "lang": "und"
            }
        ]
    },
    "nid": [
        {
            "value": 45
        }
    ],
    "uuid": [
        {
            "value": "8137e2b7-d835-46a6-90b5-f52b538bc51b"
        }
    ],
    "vid": [
        {
            "value": 45
        }
    ],
    "langcode": [
        {
            "value": "und",
            "lang": "und"
        }
    ],
    "type": [
        {
            "target_id": "article"
        }
    ],
    "revision_timestamp": [
        {
            "value": "2020-05-01T15:14:55+00:00",
            "format": "Y-m-d\\TH:i:sP"
        }
    ],
    "_embedded": {
        "http:\/\/drupal.org\/rest\/relation\/node\/article\/revision_uid": [
            {
                "_links": {
                    "self": {
                        "href": "http:\/\/default\/user\/0?_format=hal_json"
                    },
                    "type": {
                        "href": "http:\/\/drupal.org\/rest\/type\/user\/user"
                    }
                },
                "uuid": [
                    {
                        "value": "a84080bc-5fdb-4768-b3f4-6f57576017ee"
                    }
                ]
            }
        ],
        "http:\/\/drupal.org\/rest\/relation\/node\/article\/uid": [
            {
                "_links": {
                    "self": {
                        "href": "http:\/\/default\/user\/0?_format=hal_json"
                    },
                    "type": {
                        "href": "http:\/\/drupal.org\/rest\/type\/user\/user"
                    }
                },
                "uuid": [
                    {
                        "value": "a84080bc-5fdb-4768-b3f4-6f57576017ee"
                    }
                ],
                "lang": "und"
            }
        ],
        "http:\/\/drupal.org\/rest\/relation\/node\/article\/field_article_categories": [
            {
                "_links": {
                    "self": {
                        "href": "http:\/\/default\/category\/getting-started?_format=hal_json"
                    },
                    "type": {
                        "href": "http:\/\/drupal.org\/rest\/type\/taxonomy_term\/article_categories"
                    }
                },
                "uuid": [
                    {
                        "value": "00944523-b645-4a97-904c-b7b4c40466e7"
                    }
                ]
            }
        ],
        "http:\/\/drupal.org\/rest\/relation\/node\/article\/field_article_type": [
            {
                "_links": {
                    "self": {
                        "href": "http:\/\/default\/taxonomy\/term\/1?_format=hal_json"
                    },
                    "type": {
                        "href": "http:\/\/drupal.org\/rest\/type\/taxonomy_term\/article_type"
                    }
                },
                "uuid": [
                    {
                        "value": "b5a74de6-04bb-4e17-8e59-8a5de02d4fe5"
                    }
                ]
            }
        ],
        "http:\/\/drupal.org\/rest\/relation\/node\/article\/field_image": [
            {
                "_links": {
                    "self": {
                        "href": "http:\/\/default\/sites\/default\/files\/2020-05\/card-reader-payment.jpg"
                    },
                    "type": {
                        "href": "http:\/\/drupal.org\/rest\/type\/file\/file"
                    }
                },
                "uuid": [
                    {
                        "value": "1bb4a8c4-3c6c-410c-bf53-abff25727bd0"
                    }
                ],
                "lang": "und"
            }
        ],
        "http:\/\/drupal.org\/rest\/relation\/node\/article\/field_tags": [
            {
                "_links": {
                    "self": {
                        "href": "http:\/\/default\/tag\/people?_format=hal_json"
                    },
                    "type": {
                        "href": "http:\/\/drupal.org\/rest\/type\/taxonomy_term\/tags"
                    }
                },
                "uuid": [
                    {
                        "value": "f683d74a-00a3-4685-9622-51257d469015"
                    }
                ],
                "lang": "und"
            }
        ]
    },
    "status": [
        {
            "value": true,
            "lang": "und"
        }
    ],
    "title": [
        {
            "value": "Morbi fringilla sed ipsum a placerat dykdnmf",
            "lang": "und"
        }
    ],
    "created": [
        {
            "value": "2020-04-29T22:20:01+00:00",
            "lang": "und",
            "format": "Y-m-d\\TH:i:sP"
        }
    ],
    "changed": [
        {
            "value": "2020-05-01T16:12:10+00:00",
            "lang": "und",
            "format": "Y-m-d\\TH:i:sP"
        }
    ],
    "promote": [
        {
            "value": false,
            "lang": "und"
        }
    ],
    "sticky": [
        {
            "value": false,
            "lang": "und"
        }
    ],
    "default_langcode": [
        {
            "value": true,
            "lang": "und"
        }
    ],
    "revision_translation_affected": [
        {
            "value": true,
            "lang": "und"
        }
    ],
    "metatag": [
        {
            "value": {
                "title": "Morbi fringilla sed ipsum a placerat dykdnmf | ITCross Starter Kit",
                "canonical_url": "http:\/\/default\/article\/morbi-fringilla-sed-ipsum-placerat-dykdnmf",
                "description": "Sed consectetur bibendum mauris. Ut consectetur diam ex, non ullamcorper sem dignissim in. Donec nec hendrerit justo. Suspendisse accumsan dolor quis libero lobortis sollicitudin. Vestibulum pellentesque dolor quam, ac aliquam urna elementum eget. Pellentesque convallis eros eget dui lacinia vehicula non iaculis erat. Maecenas tincidunt ac enim vel gravida. Aenean ex nisl, fringilla nec dignissim sed, aliquet fermentum magna. Nullam viverra massa sit amet quam eleifend, at pharetra arcu ultrices. Nullam vitae pellentesque nulla. Aenean at massa dolor. Quisque placerat ultricies pretium.\n\nMaecenas sagittis urna nulla. Morbi fringilla sed ipsum a placerat. Nunc tortor dolor, venenatis id luctus nec, feugiat non nisi. Aenean eu odio aliquam, posuere urna vel, semper nibh. Fusce sed purus sed orci fermentum pulvinar. Donec et lacinia massa, a elementum nisi. Curabitur pellentesque laoreet justo, quis blandit odio faucibus nec. Cras pharetra mauris vel arcu egestas, ut consequat lorem faucibus. Curabitur sagittis, urna eu mattis vehicula, lorem ligula dignissim eros, nec ornare magna eros ac est. Pellentesque vitae facilisis quam, eget tempus orci. Vestibulum ut ultrices quam, nec bibendum nisi. Maecenas ex est, imperdiet non sem lobortis, tincidunt egestas lorem. Pellentesque habitant morbi tristique senectus et netus et malesuada fames ac turpis egestas. Curabitur mattis sapien ac lorem mollis imperdiet. Maecenas sit amet justo id orci bibendum vestibulum eu quis diam."
            }
        }
    ],
    "path": [
        {
            "alias": "\/article\/morbi-fringilla-sed-ipsum-placerat-dykdnmf",
            "pid": 90,
            "langcode": "und",
            "lang": "und"
        }
    ],
    "body": [
        {
            "value": "<p>Ipsum <strong>ipsum dolor sit amet<\/strong> <em>consectetuer adipiscing elit, sed diam nonummy nibh euismod tincidunt ut laoreet dolore magna aliquam erat volutpat. Ut wisi enim ad minim veniam, quis nostrud exerci tation ullamcorper suscipit lobortis nisl ut aliquip ex ea commodo consequat. Duis autem vel eum iriure dolor in hendrerit in vulputate velit esse molestie consequat, vel.<\/em><\/p>\r\n\r\n<p>&nbsp;<\/p>\r\n\r\n<p>Lorem ipsum dolor sit amet, consectetur adipiscing elit. Phasellus blandit semper varius. Cras ultrices sapien lacus, eget posuere tellus sollicitudin a. Proin eu risus porttitor, varius diam et, ultricies libero. Sed auctor, ex non elementum interdum, dolor mauris ultrices diam, sit amet commodo orci justo at magna. Cras pellentesque nunc nulla, at rutrum nisi commodo sit amet. Donec tincidunt, ligula eu accumsan commodo, metus sem eleifend turpis, eget fermentum tellus nisl vel purus. Suspendisse vulputate, sem id vulputate pharetra, augue dui laoreet sem, ut vulputate tellus lorem ornare mauris. Pellentesque volutpat tellus eu dolor egestas mollis. Proin eleifend, tellus laoreet congue aliquam, magna leo molestie ex, vitae euismod odio mauris iaculis leo.<\/p>\r\n\r\n<p>In in sapien in nulla euismod posuere a et sem. Mauris vitae tortor tortor. Vestibulum a elementum elit. Phasellus leo lacus, posuere at tempor at, elementum sit amet neque. Pellentesque habitant morbi tristique senectus et netus et malesuada fames ac turpis egestas. Ut eget leo et lorem pulvinar tristique nec at leo. Morbi malesuada diam et faucibus tincidunt. Aliquam laoreet, purus vel dictum finibus, arcu magna vehicula quam, sed scelerisque orci nulla in est. Ut elementum in eros in sagittis. Pellentesque habitant morbi tristique senectus et netus et malesuada fames ac turpis egestas. Suspendisse condimentum a elit id posuere. Cras porta ex nec mauris ultrices, sed aliquam justo venenatis. Cras luctus ex vitae nibh mollis, et bibendum metus sagittis. Aliquam leo quam, condimentum non dolor sed, aliquam finibus purus.<\/p>\r\n\r\n<p>Sed consectetur bibendum mauris. Ut consectetur diam ex, non ullamcorper sem dignissim in. Donec nec hendrerit justo. Suspendisse accumsan dolor quis libero lobortis sollicitudin. Vestibulum pellentesque dolor quam, ac aliquam urna elementum eget. Pellentesque convallis eros eget dui lacinia vehicula non iaculis erat. Maecenas tincidunt ac enim vel gravida. Aenean ex nisl, fringilla nec dignissim sed, aliquet fermentum magna. Nullam viverra massa sit amet quam eleifend, at pharetra arcu ultrices. Nullam vitae pellentesque nulla. Aenean at massa dolor. Quisque placerat ultricies pretium.<\/p>\r\n\r\n<p>Maecenas sagittis urna nulla. Morbi fringilla sed ipsum a placerat. Nunc tortor dolor, venenatis id luctus nec, feugiat non nisi. Aenean eu odio aliquam, posuere urna vel, semper nibh. Fusce sed purus sed orci fermentum pulvinar. Donec et lacinia massa, a elementum nisi. Curabitur pellentesque laoreet justo, quis blandit odio faucibus nec. Cras pharetra mauris vel arcu egestas, ut consequat lorem faucibus. Curabitur sagittis, urna eu mattis vehicula, lorem ligula dignissim eros, nec ornare magna eros ac est. Pellentesque vitae facilisis quam, eget tempus orci. Vestibulum ut ultrices quam, nec bibendum nisi. Maecenas ex est, imperdiet non sem lobortis, tincidunt egestas lorem. Pellentesque habitant morbi tristique senectus et netus et malesuada fames ac turpis egestas. Curabitur mattis sapien ac lorem mollis imperdiet. Maecenas sit amet justo id orci bibendum vestibulum eu quis diam.<\/p>\r\n\r\n<p>Suspendisse potenti. Aenean et varius tellus, placerat euismod orci. Fusce condimentum volutpat vestibulum. Nam et elit vel mauris bibendum iaculis. Etiam facilisis rhoncus dolor, sit amet molestie odio pretium vel. Nulla elementum commodo luctus. Aliquam vel eleifend ipsum. Etiam mattis enim id ligula vehicula, sed fringilla magna auctor.<\/p>\r\n\r\n<p>Integer non ante et libero placerat efficitur sit amet eu magna. In hac habitasse platea dictumst. Nulla vehicula vehicula ex, quis laoreet magna cursus ut. Pellentesque consectetur quam quis tincidunt rutrum. Nam dictum urna id aliquet varius. Pellentesque posuere lorem lacus, sit amet tincidunt ex mattis in. Aliquam gravida quam eget tempor lacinia. Integer sagittis magna justo, vel pellentesque sem luctus vitae. Phasellus vulputate eu eros vitae aliquet. Integer sed ullamcorper tortor. Suspendisse tempus id lacus id varius. In ultricies malesuada odio, vel suscipit diam facilisis ultricies.<\/p>\r\n\r\n<p><strong>lum dolore eu feugiat nulla <em>facilisis at vero eros et accumsan et iusto odio dignissim qui blandit praesent luptatum zzril delenit augue duis dolore te feugait nulla facilisi. Nam liber tempor cum soluta nobis eleifend option congue nihil imperdiet doming id quod mazim placerat facer possim assum. Typi non habent claritatem insitam; est usus legentis in iis qui facit eorum<\/em> claritatem. Investigationes demonstraverunt lectores legere me lius quod ii legunt saepius. Claritas est etiam processus dynamicus, qui sequitur mutationem consuetudium lectorum. Mirum est notare quam littera gothica, quam nunc putamus parum claram, anteposuerit litterarum formas humanitatis per seacula quarta decima et quinta decima. Eodem modo typi, qui nunc nobis videntur parum clari, fiant sollemnes in futurum.<\/strong><\/p>\r\n",
            "format": "full_html",
            "processed": "<p>Ipsum <strong>ipsum dolor sit amet<\/strong> <em>consectetuer adipiscing elit, sed diam nonummy nibh euismod tincidunt ut laoreet dolore magna aliquam erat volutpat. Ut wisi enim ad minim veniam, quis nostrud exerci tation ullamcorper suscipit lobortis nisl ut aliquip ex ea commodo consequat. Duis autem vel eum iriure dolor in hendrerit in vulputate velit esse molestie consequat, vel.<\/em><\/p>\n\n<p>\u00a0<\/p>\n\n<p>Lorem ipsum dolor sit amet, consectetur adipiscing elit. Phasellus blandit semper varius. Cras ultrices sapien lacus, eget posuere tellus sollicitudin a. Proin eu risus porttitor, varius diam et, ultricies libero. Sed auctor, ex non elementum interdum, dolor mauris ultrices diam, sit amet commodo orci justo at magna. Cras pellentesque nunc nulla, at rutrum nisi commodo sit amet. Donec tincidunt, ligula eu accumsan commodo, metus sem eleifend turpis, eget fermentum tellus nisl vel purus. Suspendisse vulputate, sem id vulputate pharetra, augue dui laoreet sem, ut vulputate tellus lorem ornare mauris. Pellentesque volutpat tellus eu dolor egestas mollis. Proin eleifend, tellus laoreet congue aliquam, magna leo molestie ex, vitae euismod odio mauris iaculis leo.<\/p>\n\n<p>In in sapien in nulla euismod posuere a et sem. Mauris vitae tortor tortor. Vestibulum a elementum elit. Phasellus leo lacus, posuere at tempor at, elementum sit amet neque. Pellentesque habitant morbi tristique senectus et netus et malesuada fames ac turpis egestas. Ut eget leo et lorem pulvinar tristique nec at leo. Morbi malesuada diam et faucibus tincidunt. Aliquam laoreet, purus vel dictum finibus, arcu magna vehicula quam, sed scelerisque orci nulla in est. Ut elementum in eros in sagittis. Pellentesque habitant morbi tristique senectus et netus et malesuada fames ac turpis egestas. Suspendisse condimentum a elit id posuere. Cras porta ex nec mauris ultrices, sed aliquam justo venenatis. Cras luctus ex vitae nibh mollis, et bibendum metus sagittis. Aliquam leo quam, condimentum non dolor sed, aliquam finibus purus.<\/p>\n\n<p>Sed consectetur bibendum mauris. Ut consectetur diam ex, non ullamcorper sem dignissim in. Donec nec hendrerit justo. Suspendisse accumsan dolor quis libero lobortis sollicitudin. Vestibulum pellentesque dolor quam, ac aliquam urna elementum eget. Pellentesque convallis eros eget dui lacinia vehicula non iaculis erat. Maecenas tincidunt ac enim vel gravida. Aenean ex nisl, fringilla nec dignissim sed, aliquet fermentum magna. Nullam viverra massa sit amet quam eleifend, at pharetra arcu ultrices. Nullam vitae pellentesque nulla. Aenean at massa dolor. Quisque placerat ultricies pretium.<\/p>\n\n<p>Maecenas sagittis urna nulla. Morbi fringilla sed ipsum a placerat. Nunc tortor dolor, venenatis id luctus nec, feugiat non nisi. Aenean eu odio aliquam, posuere urna vel, semper nibh. Fusce sed purus sed orci fermentum pulvinar. Donec et lacinia massa, a elementum nisi. Curabitur pellentesque laoreet justo, quis blandit odio faucibus nec. Cras pharetra mauris vel arcu egestas, ut consequat lorem faucibus. Curabitur sagittis, urna eu mattis vehicula, lorem ligula dignissim eros, nec ornare magna eros ac est. Pellentesque vitae facilisis quam, eget tempus orci. Vestibulum ut ultrices quam, nec bibendum nisi. Maecenas ex est, imperdiet non sem lobortis, tincidunt egestas lorem. Pellentesque habitant morbi tristique senectus et netus et malesuada fames ac turpis egestas. Curabitur mattis sapien ac lorem mollis imperdiet. Maecenas sit amet justo id orci bibendum vestibulum eu quis diam.<\/p>\n\n<p>Suspendisse potenti. Aenean et varius tellus, placerat euismod orci. Fusce condimentum volutpat vestibulum. Nam et elit vel mauris bibendum iaculis. Etiam facilisis rhoncus dolor, sit amet molestie odio pretium vel. Nulla elementum commodo luctus. Aliquam vel eleifend ipsum. Etiam mattis enim id ligula vehicula, sed fringilla magna auctor.<\/p>\n\n<p>Integer non ante et libero placerat efficitur sit amet eu magna. In hac habitasse platea dictumst. Nulla vehicula vehicula ex, quis laoreet magna cursus ut. Pellentesque consectetur quam quis tincidunt rutrum. Nam dictum urna id aliquet varius. Pellentesque posuere lorem lacus, sit amet tincidunt ex mattis in. Aliquam gravida quam eget tempor lacinia. Integer sagittis magna justo, vel pellentesque sem luctus vitae. Phasellus vulputate eu eros vitae aliquet. Integer sed ullamcorper tortor. Suspendisse tempus id lacus id varius. In ultricies malesuada odio, vel suscipit diam facilisis ultricies.<\/p>\n\n<p><strong>lum dolore eu feugiat nulla <em>facilisis at vero eros et accumsan et iusto odio dignissim qui blandit praesent luptatum zzril delenit augue duis dolore te feugait nulla facilisi. Nam liber tempor cum soluta nobis eleifend option congue nihil imperdiet doming id quod mazim placerat facer possim assum. Typi non habent claritatem insitam; est usus legentis in iis qui facit eorum<\/em> claritatem. Investigationes demonstraverunt lectores legere me lius quod ii legunt saepius. Claritas est etiam processus dynamicus, qui sequitur mutationem consuetudium lectorum. Mirum est notare quam littera gothica, quam nunc putamus parum claram, anteposuerit litterarum formas humanitatis per seacula quarta decima et quinta decima. Eodem modo typi, qui nunc nobis videntur parum clari, fiant sollemnes in futurum.<\/strong><\/p>\n",
            "summary": "Sed consectetur bibendum mauris. Ut consectetur diam ex, non ullamcorper sem dignissim in. Donec nec hendrerit justo. Suspendisse accumsan dolor quis libero lobortis sollicitudin. Vestibulum pellentesque dolor quam, ac aliquam urna elementum eget. Pellentesque convallis eros eget dui lacinia vehicula non iaculis erat. Maecenas tincidunt ac enim vel gravida. Aenean ex nisl, fringilla nec dignissim sed, aliquet fermentum magna. Nullam viverra massa sit amet quam eleifend, at pharetra arcu ultrices. Nullam vitae pellentesque nulla. Aenean at massa dolor. Quisque placerat ultricies pretium.\r\n\r\nMaecenas sagittis urna nulla. Morbi fringilla sed ipsum a placerat. Nunc tortor dolor, venenatis id luctus nec, feugiat non nisi. Aenean eu odio aliquam, posuere urna vel, semper nibh. Fusce sed purus sed orci fermentum pulvinar. Donec et lacinia massa, a elementum nisi. Curabitur pellentesque laoreet justo, quis blandit odio faucibus nec. Cras pharetra mauris vel arcu egestas, ut consequat lorem faucibus. Curabitur sagittis, urna eu mattis vehicula, lorem ligula dignissim eros, nec ornare magna eros ac est. Pellentesque vitae facilisis quam, eget tempus orci. Vestibulum ut ultrices quam, nec bibendum nisi. Maecenas ex est, imperdiet non sem lobortis, tincidunt egestas lorem. Pellentesque habitant morbi tristique senectus et netus et malesuada fames ac turpis egestas. Curabitur mattis sapien ac lorem mollis imperdiet. Maecenas sit amet justo id orci bibendum vestibulum eu quis diam.",
            "lang": "und"
        }
    ],
    "comment": [
        {
            "status": 0,
            "cid": 0,
            "last_comment_timestamp": 1588346095,
            "last_comment_name": null,
            "last_comment_uid": 0,
            "comment_count": 0,
            "lang": "und"
        }
    ]
}