{
    "_links": {
        "self": {
            "href": "http:\/\/default\/blog\/porta-suscipit?_format=hal_json"
        },
        "type": {
            "href": "http:\/\/drupal.org\/rest\/type\/node\/article"
        },
        "http:\/\/drupal.org\/rest\/relation\/node\/article\/revision_uid": [
            {
                "href": "http:\/\/default\/user\/0?_format=hal_json"
            }
        ],
        "http:\/\/drupal.org\/rest\/relation\/node\/article\/uid": [
            {
                "href": "http:\/\/default\/user\/0?_format=hal_json",
                "lang": "und"
            }
        ],
        "http:\/\/drupal.org\/rest\/relation\/node\/article\/field_article_categories": [
            {
                "href": "http:\/\/default\/category\/upgraders?_format=hal_json"
            }
        ],
        "http:\/\/drupal.org\/rest\/relation\/node\/article\/field_article_type": [
            {
                "href": "http:\/\/default\/taxonomy\/term\/3?_format=hal_json"
            }
        ],
        "http:\/\/drupal.org\/rest\/relation\/node\/article\/field_image": [
            {
                "href": "http:\/\/default\/sites\/default\/files\/2020-05\/curved-river-viewed-from-above.jpg",
                "lang": "und"
            }
        ],
        "http:\/\/drupal.org\/rest\/relation\/node\/article\/field_tags": [
            {
                "href": "http:\/\/default\/tag\/events?_format=hal_json",
                "lang": "und"
            }
        ]
    },
    "nid": [
        {
            "value": 43
        }
    ],
    "uuid": [
        {
            "value": "9b4cd77e-abe4-452b-b5e1-ee90813f6e8e"
        }
    ],
    "vid": [
        {
            "value": 43
        }
    ],
    "langcode": [
        {
            "value": "und",
            "lang": "und"
        }
    ],
    "type": [
        {
            "target_id": "article"
        }
    ],
    "revision_timestamp": [
        {
            "value": "2020-05-01T15:14:55+00:00",
            "format": "Y-m-d\\TH:i:sP"
        }
    ],
    "_embedded": {
        "http:\/\/drupal.org\/rest\/relation\/node\/article\/revision_uid": [
            {
                "_links": {
                    "self": {
                        "href": "http:\/\/default\/user\/0?_format=hal_json"
                    },
                    "type": {
                        "href": "http:\/\/drupal.org\/rest\/type\/user\/user"
                    }
                },
                "uuid": [
                    {
                        "value": "a84080bc-5fdb-4768-b3f4-6f57576017ee"
                    }
                ]
            }
        ],
        "http:\/\/drupal.org\/rest\/relation\/node\/article\/uid": [
            {
                "_links": {
                    "self": {
                        "href": "http:\/\/default\/user\/0?_format=hal_json"
                    },
                    "type": {
                        "href": "http:\/\/drupal.org\/rest\/type\/user\/user"
                    }
                },
                "uuid": [
                    {
                        "value": "a84080bc-5fdb-4768-b3f4-6f57576017ee"
                    }
                ],
                "lang": "und"
            }
        ],
        "http:\/\/drupal.org\/rest\/relation\/node\/article\/field_article_categories": [
            {
                "_links": {
                    "self": {
                        "href": "http:\/\/default\/category\/upgraders?_format=hal_json"
                    },
                    "type": {
                        "href": "http:\/\/drupal.org\/rest\/type\/taxonomy_term\/article_categories"
                    }
                },
                "uuid": [
                    {
                        "value": "d03ce9e4-baa3-41cd-b0ff-efb22050c548"
                    }
                ]
            }
        ],
        "http:\/\/drupal.org\/rest\/relation\/node\/article\/field_article_type": [
            {
                "_links": {
                    "self": {
                        "href": "http:\/\/default\/taxonomy\/term\/3?_format=hal_json"
                    },
                    "type": {
                        "href": "http:\/\/drupal.org\/rest\/type\/taxonomy_term\/article_type"
                    }
                },
                "uuid": [
                    {
                        "value": "4bbec976-0c46-475d-b7c1-18e94a59ec3d"
                    }
                ]
            }
        ],
        "http:\/\/drupal.org\/rest\/relation\/node\/article\/field_image": [
            {
                "_links": {
                    "self": {
                        "href": "http:\/\/default\/sites\/default\/files\/2020-05\/curved-river-viewed-from-above.jpg"
                    },
                    "type": {
                        "href": "http:\/\/drupal.org\/rest\/type\/file\/file"
                    }
                },
                "uuid": [
                    {
                        "value": "f898af3e-e322-40e5-b61a-2128b3731caa"
                    }
                ],
                "lang": "und"
            }
        ],
        "http:\/\/drupal.org\/rest\/relation\/node\/article\/field_tags": [
            {
                "_links": {
                    "self": {
                        "href": "http:\/\/default\/tag\/events?_format=hal_json"
                    },
                    "type": {
                        "href": "http:\/\/drupal.org\/rest\/type\/taxonomy_term\/tags"
                    }
                },
                "uuid": [
                    {
                        "value": "5129a20f-3487-486a-a5d1-7206b6ab9ee1"
                    }
                ],
                "lang": "und"
            }
        ]
    },
    "status": [
        {
            "value": true,
            "lang": "und"
        }
    ],
    "title": [
        {
            "value": "At porta suscipit",
            "lang": "und"
        }
    ],
    "created": [
        {
            "value": "2020-04-29T23:54:50+00:00",
            "lang": "und",
            "format": "Y-m-d\\TH:i:sP"
        }
    ],
    "changed": [
        {
            "value": "2020-05-01T15:54:47+00:00",
            "lang": "und",
            "format": "Y-m-d\\TH:i:sP"
        }
    ],
    "promote": [
        {
            "value": false,
            "lang": "und"
        }
    ],
    "sticky": [
        {
            "value": false,
            "lang": "und"
        }
    ],
    "default_langcode": [
        {
            "value": true,
            "lang": "und"
        }
    ],
    "revision_translation_affected": [
        {
            "value": true,
            "lang": "und"
        }
    ],
    "metatag": [
        {
            "value": {
                "title": "At porta suscipit | ITCross Starter Kit",
                "canonical_url": "http:\/\/default\/blog\/porta-suscipit",
                "description": "Curabitur non mollis enim. Pellentesque quis diam non nisi fringilla dignissim eu consectetur ligula. Maecenas mollis tortor a felis sollicitudin, eu suscipit magna dapibus. Vestibulum ac vestibulum nunc, id pulvinar arcu. Praesent venenatis porta dolor, at lacinia metus venenatis a. Nulla tincidunt odio quis sem commodo, eu egestas augue sollicitudin. Sed tincidunt turpis at porta suscipit. Etiam sed ex ac lacus mollis faucibus. Nullam posuere neque eu pellentesque hendrerit. Duis libero sem, fermentum id nulla nec, sagittis vestibulum sapien."
            }
        }
    ],
    "path": [
        {
            "alias": "\/blog\/porta-suscipit",
            "pid": 86,
            "langcode": "und",
            "lang": "und"
        }
    ],
    "body": [
        {
            "value": "<p>Quisque tempor tortor ac est cursus egestas. Pellentesque vitae arcu dolor. Fusce lacinia massa arcu, ut rutrum augue dapibus vel. Vestibulum vehicula mattis eros, in tincidunt magna convallis at. Morbi id orci lectus. Quisque eu ante orci. Vestibulum et aliquam diam. Vivamus egestas sapien purus, id condimentum elit mollis eget.<\/p>\r\n\r\n<p>Donec vehicula, dolor in aliquam malesuada, nibh arcu convallis eros, id rhoncus turpis leo id felis. Pellentesque pellentesque molestie facilisis. Aenean lectus velit, vehicula sed velit sed, rhoncus scelerisque lorem. Sed id euismod libero, sit amet venenatis sem. Aenean ac est at felis scelerisque bibendum id at erat. Donec at velit nisl. Maecenas in lobortis turpis. Quisque in blandit tellus. Ut elementum congue sapien. Ut commodo lacus ac eleifend ultrices. Donec in neque tempor, vulputate tellus sed, venenatis erat. Phasellus tristique, justo at dictum suscipit, mi enim viverra nulla, nec suscipit turpis urna quis dui. Integer placerat justo ut justo condimentum, id consequat velit tristique. Fusce bibendum egestas orci vitae condimentum. Nam venenatis quam mi, sit amet fringilla risus consequat a. Vivamus magna erat, luctus sed vehicula eget, porttitor vel dolor.<\/p>\r\n\r\n<p>In a tellus nec urna hendrerit eleifend luctus eget enim. Pellentesque vitae ligula vehicula, convallis mauris eu, sodales metus. Curabitur ac finibus magna, id ultricies odio. Etiam mattis at est vel luctus. Maecenas tristique suscipit felis, sed lobortis odio porta vitae. Nulla luctus malesuada lorem. Sed eget lorem lectus. Ut facilisis dictum convallis.<\/p>\r\n\r\n<p>Curabitur non mollis enim. Pellentesque quis diam non nisi fringilla dignissim eu consectetur ligula. Maecenas mollis tortor a felis sollicitudin, eu suscipit magna dapibus. Vestibulum ac vestibulum nunc, id pulvinar arcu. Praesent venenatis porta dolor, at lacinia metus venenatis a. Nulla tincidunt odio quis sem commodo, eu egestas augue sollicitudin. Sed tincidunt turpis at porta suscipit. Etiam sed ex ac lacus mollis faucibus. Nullam posuere neque eu pellentesque hendrerit. Duis libero sem, fermentum id nulla nec, sagittis vestibulum sapien. Maecenas consequat, nibh id rutrum convallis, purus mi blandit sem, et bibendum nulla ante elementum dolor. Vivamus purus augue, tempor vel ornare eget, luctus volutpat lorem. Phasellus at ipsum neque.<\/p>\r\n",
            "format": "basic_html",
            "processed": "<p>Quisque tempor tortor ac est cursus egestas. Pellentesque vitae arcu dolor. Fusce lacinia massa arcu, ut rutrum augue dapibus vel. Vestibulum vehicula mattis eros, in tincidunt magna convallis at. Morbi id orci lectus. Quisque eu ante orci. Vestibulum et aliquam diam. Vivamus egestas sapien purus, id condimentum elit mollis eget.<\/p>\n\n<p>Donec vehicula, dolor in aliquam malesuada, nibh arcu convallis eros, id rhoncus turpis leo id felis. Pellentesque pellentesque molestie facilisis. Aenean lectus velit, vehicula sed velit sed, rhoncus scelerisque lorem. Sed id euismod libero, sit amet venenatis sem. Aenean ac est at felis scelerisque bibendum id at erat. Donec at velit nisl. Maecenas in lobortis turpis. Quisque in blandit tellus. Ut elementum congue sapien. Ut commodo lacus ac eleifend ultrices. Donec in neque tempor, vulputate tellus sed, venenatis erat. Phasellus tristique, justo at dictum suscipit, mi enim viverra nulla, nec suscipit turpis urna quis dui. Integer placerat justo ut justo condimentum, id consequat velit tristique. Fusce bibendum egestas orci vitae condimentum. Nam venenatis quam mi, sit amet fringilla risus consequat a. Vivamus magna erat, luctus sed vehicula eget, porttitor vel dolor.<\/p>\n\n<p>In a tellus nec urna hendrerit eleifend luctus eget enim. Pellentesque vitae ligula vehicula, convallis mauris eu, sodales metus. Curabitur ac finibus magna, id ultricies odio. Etiam mattis at est vel luctus. Maecenas tristique suscipit felis, sed lobortis odio porta vitae. Nulla luctus malesuada lorem. Sed eget lorem lectus. Ut facilisis dictum convallis.<\/p>\n\n<p>Curabitur non mollis enim. Pellentesque quis diam non nisi fringilla dignissim eu consectetur ligula. Maecenas mollis tortor a felis sollicitudin, eu suscipit magna dapibus. Vestibulum ac vestibulum nunc, id pulvinar arcu. Praesent venenatis porta dolor, at lacinia metus venenatis a. Nulla tincidunt odio quis sem commodo, eu egestas augue sollicitudin. Sed tincidunt turpis at porta suscipit. Etiam sed ex ac lacus mollis faucibus. Nullam posuere neque eu pellentesque hendrerit. Duis libero sem, fermentum id nulla nec, sagittis vestibulum sapien. Maecenas consequat, nibh id rutrum convallis, purus mi blandit sem, et bibendum nulla ante elementum dolor. Vivamus purus augue, tempor vel ornare eget, luctus volutpat lorem. Phasellus at ipsum neque.<\/p>",
            "summary": "Curabitur non mollis enim. Pellentesque quis diam non nisi fringilla dignissim eu consectetur ligula. Maecenas mollis tortor a felis sollicitudin, eu suscipit magna dapibus. Vestibulum ac vestibulum nunc, id pulvinar arcu. Praesent venenatis porta dolor, at lacinia metus venenatis a. Nulla tincidunt odio quis sem commodo, eu egestas augue sollicitudin. Sed tincidunt turpis at porta suscipit. Etiam sed ex ac lacus mollis faucibus. Nullam posuere neque eu pellentesque hendrerit. Duis libero sem, fermentum id nulla nec, sagittis vestibulum sapien.",
            "lang": "und"
        }
    ],
    "comment": [
        {
            "status": 1,
            "cid": 0,
            "last_comment_timestamp": 1588346095,
            "last_comment_name": null,
            "last_comment_uid": 0,
            "comment_count": 0,
            "lang": "und"
        }
    ]
}