{
    "_links": {
        "self": {
            "href": "http:\/\/default\/article\/typi-non-habent-claritatem-insitam-humanitatis?_format=hal_json"
        },
        "type": {
            "href": "http:\/\/drupal.org\/rest\/type\/node\/article"
        },
        "http:\/\/drupal.org\/rest\/relation\/node\/article\/revision_uid": [
            {
                "href": "http:\/\/default\/user\/3?_format=hal_json"
            }
        ],
        "http:\/\/drupal.org\/rest\/relation\/node\/article\/uid": [
            {
                "href": "http:\/\/default\/user\/3?_format=hal_json",
                "lang": "zxx"
            }
        ],
        "http:\/\/drupal.org\/rest\/relation\/node\/article\/field_article_categories": [
            {
                "href": "http:\/\/default\/category\/getting-started?_format=hal_json"
            }
        ],
        "http:\/\/drupal.org\/rest\/relation\/node\/article\/field_article_type": [
            {
                "href": "http:\/\/default\/taxonomy\/term\/1?_format=hal_json"
            }
        ],
        "http:\/\/drupal.org\/rest\/relation\/node\/article\/field_image": [
            {
                "href": "http:\/\/default\/sites\/default\/files\/2020-05\/clifftop-buildings-over-water.jpg",
                "lang": "zxx"
            }
        ],
        "http:\/\/drupal.org\/rest\/relation\/node\/article\/field_tags": [
            {
                "href": "http:\/\/default\/tag\/historical?_format=hal_json",
                "lang": "zxx"
            }
        ]
    },
    "nid": [
        {
            "value": 19
        }
    ],
    "uuid": [
        {
            "value": "c214a25b-a9fc-410f-a404-c5c12e390fe3"
        }
    ],
    "vid": [
        {
            "value": 19
        }
    ],
    "langcode": [
        {
            "value": "zxx",
            "lang": "zxx"
        }
    ],
    "type": [
        {
            "target_id": "article"
        }
    ],
    "revision_timestamp": [
        {
            "value": "2020-05-01T15:14:55+00:00",
            "format": "Y-m-d\\TH:i:sP"
        }
    ],
    "_embedded": {
        "http:\/\/drupal.org\/rest\/relation\/node\/article\/revision_uid": [
            {
                "_links": {
                    "self": {
                        "href": "http:\/\/default\/user\/3?_format=hal_json"
                    },
                    "type": {
                        "href": "http:\/\/drupal.org\/rest\/type\/user\/user"
                    }
                },
                "uuid": [
                    {
                        "value": "88b8f7ac-8875-4b8e-b57d-9db84aa0f7bd"
                    }
                ]
            }
        ],
        "http:\/\/drupal.org\/rest\/relation\/node\/article\/uid": [
            {
                "_links": {
                    "self": {
                        "href": "http:\/\/default\/user\/3?_format=hal_json"
                    },
                    "type": {
                        "href": "http:\/\/drupal.org\/rest\/type\/user\/user"
                    }
                },
                "uuid": [
                    {
                        "value": "88b8f7ac-8875-4b8e-b57d-9db84aa0f7bd"
                    }
                ],
                "lang": "zxx"
            }
        ],
        "http:\/\/drupal.org\/rest\/relation\/node\/article\/field_article_categories": [
            {
                "_links": {
                    "self": {
                        "href": "http:\/\/default\/category\/getting-started?_format=hal_json"
                    },
                    "type": {
                        "href": "http:\/\/drupal.org\/rest\/type\/taxonomy_term\/article_categories"
                    }
                },
                "uuid": [
                    {
                        "value": "00944523-b645-4a97-904c-b7b4c40466e7"
                    }
                ]
            }
        ],
        "http:\/\/drupal.org\/rest\/relation\/node\/article\/field_article_type": [
            {
                "_links": {
                    "self": {
                        "href": "http:\/\/default\/taxonomy\/term\/1?_format=hal_json"
                    },
                    "type": {
                        "href": "http:\/\/drupal.org\/rest\/type\/taxonomy_term\/article_type"
                    }
                },
                "uuid": [
                    {
                        "value": "b5a74de6-04bb-4e17-8e59-8a5de02d4fe5"
                    }
                ]
            }
        ],
        "http:\/\/drupal.org\/rest\/relation\/node\/article\/field_image": [
            {
                "_links": {
                    "self": {
                        "href": "http:\/\/default\/sites\/default\/files\/2020-05\/clifftop-buildings-over-water.jpg"
                    },
                    "type": {
                        "href": "http:\/\/drupal.org\/rest\/type\/file\/file"
                    }
                },
                "uuid": [
                    {
                        "value": "2fbb7888-d703-4f06-8301-4c518399b060"
                    }
                ],
                "lang": "zxx"
            }
        ],
        "http:\/\/drupal.org\/rest\/relation\/node\/article\/field_tags": [
            {
                "_links": {
                    "self": {
                        "href": "http:\/\/default\/tag\/historical?_format=hal_json"
                    },
                    "type": {
                        "href": "http:\/\/drupal.org\/rest\/type\/taxonomy_term\/tags"
                    }
                },
                "uuid": [
                    {
                        "value": "46db9a99-f403-42e7-9902-e2821a1230e4"
                    }
                ],
                "lang": "zxx"
            }
        ]
    },
    "status": [
        {
            "value": true,
            "lang": "zxx"
        }
    ],
    "title": [
        {
            "value": "Typi non habent claritatem insitam humanitatis",
            "lang": "zxx"
        }
    ],
    "created": [
        {
            "value": "2020-04-24T17:02:12+00:00",
            "lang": "zxx",
            "format": "Y-m-d\\TH:i:sP"
        }
    ],
    "changed": [
        {
            "value": "2020-05-01T15:51:17+00:00",
            "lang": "zxx",
            "format": "Y-m-d\\TH:i:sP"
        }
    ],
    "promote": [
        {
            "value": true,
            "lang": "zxx"
        }
    ],
    "sticky": [
        {
            "value": false,
            "lang": "zxx"
        }
    ],
    "default_langcode": [
        {
            "value": true,
            "lang": "zxx"
        }
    ],
    "revision_translation_affected": [
        {
            "value": true,
            "lang": "zxx"
        }
    ],
    "metatag": [
        {
            "value": {
                "title": "Typi non habent claritatem insitam humanitatis | ITCross Starter Kit",
                "canonical_url": "http:\/\/default\/article\/typi-non-habent-claritatem-insitam-humanitatis",
                "description": "Curabitur non mollis enim. Pellentesque quis diam non nisi fringilla dignissim eu consectetur ligula. Maecenas mollis tortor a felis sollicitudin, eu suscipit magna dapibus. Vestibulum ac vestibulum nunc, id pulvinar arcu. Praesent venenatis porta dolor, at lacinia metus venenatis a. Nulla tincidunt odio quis sem commodo, eu egestas augue sollicitudin. Sed tincidunt turpis at porta suscipit. Etiam sed ex ac lacus mollis faucibus. Nullam posuere neque eu pellentesque hendrerit. Duis libero sem, fermentum id nulla nec, sagittis vestibulum sapien. Maecenas consequat, nibh id rutrum convallis, purus mi blandit sem, et bibendum nulla ante elementum dolor. Vivamus purus augue, tempor vel ornare eget, luctus volutpat lorem. Phasellus at ipsum neque."
            }
        }
    ],
    "path": [
        {
            "alias": "\/article\/typi-non-habent-claritatem-insitam-humanitatis",
            "pid": 38,
            "langcode": "und",
            "lang": "zxx"
        }
    ],
    "body": [
        {
            "value": "<p>Ipsum <strong>ipsum dolor sit amet<\/strong> <em>consectetuer adipiscing elit, sed diam nonummy nibh euismod tincidunt ut laoreet dolore magna aliquam erat volutpat. Ut wisi enim ad minim veniam, quis nostrud exerci tation ullamcorper suscipit lobortis nisl ut aliquip ex ea commodo consequat. Duis autem vel eum iriure dolor in hendrerit in vulputate velit esse molestie consequat, vel<\/em> <strong>illum dolore eu feugiat nulla <em>facilisis at vero eros et accumsan et iusto odio dignissim qui blandit praesent luptatum zzril delenit augue duis dolore te feugait nulla facilisi. Nam liber tempor cum soluta nobis eleifend option congue nihil imperdiet doming id quod mazim placerat facer possim assum. Typi non habent claritatem insitam; est usus legentis in iis qui facit eorum<\/em> claritatem. Investigationes demonstraverunt lectores legere me lius quod ii legunt saepius. Claritas est etiam processus dynamicus, qui sequitur mutationem consuetudium lectorum. Mirum est notare quam littera gothica, quam nunc putamus parum claram, anteposuerit littaerarum formas humanitatis per seacula quarta decima et quinta decima. Eodem modo typi, qui nunc nobis videntur parum clari, fiant sollemnes in futurum.<\/strong><\/p>\r\n\r\n<p>&nbsp;<\/p>\r\n\r\n<p>In a tellus nec urna hendrerit eleifend luctus eget enim. Pellentesque vitae ligula vehicula, convallis mauris eu, sodales metus. Curabitur ac finibus magna, id ultricies odio. Etiam mattis at est vel luctus. Maecenas tristique suscipit felis, sed lobortis odio porta vitae. Nulla luctus malesuada lorem. Sed eget lorem lectus. Ut facilisis dictum convallis.<\/p>\r\n\r\n<p>Curabitur non mollis enim. Pellentesque quis diam non nisi fringilla dignissim eu consectetur ligula. Maecenas mollis tortor a felis sollicitudin, eu suscipit magna dapibus. Vestibulum ac vestibulum nunc, id pulvinar arcu. Praesent venenatis porta dolor, at lacinia metus venenatis a. Nulla tincidunt odio quis sem commodo, eu egestas augue sollicitudin. Sed tincidunt turpis at porta suscipit. Etiam sed ex ac lacus mollis faucibus. Nullam posuere neque eu pellentesque hendrerit. Duis libero sem, fermentum id nulla nec, sagittis vestibulum sapien. Maecenas consequat, nibh id rutrum convallis, purus mi blandit sem, et bibendum nulla ante elementum dolor. Vivamus purus augue, tempor vel ornare eget, luctus volutpat lorem. Phasellus at ipsum neque.<\/p>\r\n\r\n<p>Nulla tempor velit id tortor sollicitudin, at rhoncus augue congue. Aliquam hendrerit sagittis ullamcorper. Mauris in lacinia tellus. Sed sagittis nisi massa, varius ullamcorper diam venenatis id. Pellentesque non bibendum orci. Nullam ut luctus diam. Nunc eleifend in sem at fermentum. Cras ultrices eros at augue ultricies auctor. Ut sodales feugiat tempor. Proin neque eros, mattis sit amet dictum et, suscipit quis nisi. Nunc molestie, nisl et accumsan feugiat, leo leo malesuada metus, sed rhoncus dui est sit amet lacus. Cras quis turpis consectetur, finibus lorem in, venenatis nibh. Vestibulum id vestibulum ex. Donec sagittis eget lorem nec lacinia.<\/p>\r\n\r\n<p>Donec nec malesuada dolor, at rutrum massa. Vestibulum sed tincidunt dolor. Nulla facilisi. Sed in facilisis ex. Etiam elementum rhoncus velit, a pulvinar est auctor non. Curabitur ac justo sem. Fusce ornare eros sit amet diam facilisis, nec fringilla nulla lacinia. Nunc fringilla finibus ex, accumsan scelerisque ex luctus eget. Suspendisse hendrerit augue at arcu posuere imperdiet. Fusce auctor, tellus at suscipit rhoncus, leo erat malesuada enim, vel aliquam sem lectus vitae eros. Donec risus dolor, auctor quis leo a, efficitur rutrum justo. Vestibulum vel metus id dolor bibendum rutrum. Aliquam erat volutpat. Sed ut dictum nisi. Nam vestibulum eros tincidunt, volutpat leo vel, lobortis eros.<\/p>\r\n",
            "format": "full_html",
            "processed": "<p>Ipsum <strong>ipsum dolor sit amet<\/strong> <em>consectetuer adipiscing elit, sed diam nonummy nibh euismod tincidunt ut laoreet dolore magna aliquam erat volutpat. Ut wisi enim ad minim veniam, quis nostrud exerci tation ullamcorper suscipit lobortis nisl ut aliquip ex ea commodo consequat. Duis autem vel eum iriure dolor in hendrerit in vulputate velit esse molestie consequat, vel<\/em> <strong>illum dolore eu feugiat nulla <em>facilisis at vero eros et accumsan et iusto odio dignissim qui blandit praesent luptatum zzril delenit augue duis dolore te feugait nulla facilisi. Nam liber tempor cum soluta nobis eleifend option congue nihil imperdiet doming id quod mazim placerat facer possim assum. Typi non habent claritatem insitam; est usus legentis in iis qui facit eorum<\/em> claritatem. Investigationes demonstraverunt lectores legere me lius quod ii legunt saepius. Claritas est etiam processus dynamicus, qui sequitur mutationem consuetudium lectorum. Mirum est notare quam littera gothica, quam nunc putamus parum claram, anteposuerit littaerarum formas humanitatis per seacula quarta decima et quinta decima. Eodem modo typi, qui nunc nobis videntur parum clari, fiant sollemnes in futurum.<\/strong><\/p>\n\n<p>\u00a0<\/p>\n\n<p>In a tellus nec urna hendrerit eleifend luctus eget enim. Pellentesque vitae ligula vehicula, convallis mauris eu, sodales metus. Curabitur ac finibus magna, id ultricies odio. Etiam mattis at est vel luctus. Maecenas tristique suscipit felis, sed lobortis odio porta vitae. Nulla luctus malesuada lorem. Sed eget lorem lectus. Ut facilisis dictum convallis.<\/p>\n\n<p>Curabitur non mollis enim. Pellentesque quis diam non nisi fringilla dignissim eu consectetur ligula. Maecenas mollis tortor a felis sollicitudin, eu suscipit magna dapibus. Vestibulum ac vestibulum nunc, id pulvinar arcu. Praesent venenatis porta dolor, at lacinia metus venenatis a. Nulla tincidunt odio quis sem commodo, eu egestas augue sollicitudin. Sed tincidunt turpis at porta suscipit. Etiam sed ex ac lacus mollis faucibus. Nullam posuere neque eu pellentesque hendrerit. Duis libero sem, fermentum id nulla nec, sagittis vestibulum sapien. Maecenas consequat, nibh id rutrum convallis, purus mi blandit sem, et bibendum nulla ante elementum dolor. Vivamus purus augue, tempor vel ornare eget, luctus volutpat lorem. Phasellus at ipsum neque.<\/p>\n\n<p>Nulla tempor velit id tortor sollicitudin, at rhoncus augue congue. Aliquam hendrerit sagittis ullamcorper. Mauris in lacinia tellus. Sed sagittis nisi massa, varius ullamcorper diam venenatis id. Pellentesque non bibendum orci. Nullam ut luctus diam. Nunc eleifend in sem at fermentum. Cras ultrices eros at augue ultricies auctor. Ut sodales feugiat tempor. Proin neque eros, mattis sit amet dictum et, suscipit quis nisi. Nunc molestie, nisl et accumsan feugiat, leo leo malesuada metus, sed rhoncus dui est sit amet lacus. Cras quis turpis consectetur, finibus lorem in, venenatis nibh. Vestibulum id vestibulum ex. Donec sagittis eget lorem nec lacinia.<\/p>\n\n<p>Donec nec malesuada dolor, at rutrum massa. Vestibulum sed tincidunt dolor. Nulla facilisi. Sed in facilisis ex. Etiam elementum rhoncus velit, a pulvinar est auctor non. Curabitur ac justo sem. Fusce ornare eros sit amet diam facilisis, nec fringilla nulla lacinia. Nunc fringilla finibus ex, accumsan scelerisque ex luctus eget. Suspendisse hendrerit augue at arcu posuere imperdiet. Fusce auctor, tellus at suscipit rhoncus, leo erat malesuada enim, vel aliquam sem lectus vitae eros. Donec risus dolor, auctor quis leo a, efficitur rutrum justo. Vestibulum vel metus id dolor bibendum rutrum. Aliquam erat volutpat. Sed ut dictum nisi. Nam vestibulum eros tincidunt, volutpat leo vel, lobortis eros.<\/p>\n",
            "summary": "Curabitur non mollis enim. Pellentesque quis diam non nisi fringilla dignissim eu consectetur ligula. Maecenas mollis tortor a felis sollicitudin, eu suscipit magna dapibus. Vestibulum ac vestibulum nunc, id pulvinar arcu. Praesent venenatis porta dolor, at lacinia metus venenatis a. Nulla tincidunt odio quis sem commodo, eu egestas augue sollicitudin. Sed tincidunt turpis at porta suscipit. Etiam sed ex ac lacus mollis faucibus. Nullam posuere neque eu pellentesque hendrerit. Duis libero sem, fermentum id nulla nec, sagittis vestibulum sapien. Maecenas consequat, nibh id rutrum convallis, purus mi blandit sem, et bibendum nulla ante elementum dolor. Vivamus purus augue, tempor vel ornare eget, luctus volutpat lorem. Phasellus at ipsum neque.",
            "lang": "zxx"
        }
    ],
    "comment": [
        {
            "status": 2,
            "cid": 0,
            "last_comment_timestamp": 1588346095,
            "last_comment_name": null,
            "last_comment_uid": 3,
            "comment_count": 0,
            "lang": "zxx"
        }
    ]
}