{
    "_links": {
        "self": {
            "href": "http:\/\/default\/article\/vestibulum-id-vestibulum-blandit?_format=hal_json"
        },
        "type": {
            "href": "http:\/\/drupal.org\/rest\/type\/node\/article"
        },
        "http:\/\/drupal.org\/rest\/relation\/node\/article\/revision_uid": [
            {
                "href": "http:\/\/default\/user\/3?_format=hal_json"
            }
        ],
        "http:\/\/drupal.org\/rest\/relation\/node\/article\/uid": [
            {
                "href": "http:\/\/default\/user\/3?_format=hal_json",
                "lang": "zxx"
            }
        ],
        "http:\/\/drupal.org\/rest\/relation\/node\/article\/field_article_categories": [
            {
                "href": "http:\/\/default\/category\/research?_format=hal_json"
            }
        ],
        "http:\/\/drupal.org\/rest\/relation\/node\/article\/field_article_type": [
            {
                "href": "http:\/\/default\/taxonomy\/term\/1?_format=hal_json"
            }
        ],
        "http:\/\/drupal.org\/rest\/relation\/node\/article\/field_image": [
            {
                "href": "http:\/\/default\/sites\/default\/files\/2020-05\/man-holding-a-leather-bag-on-a-set-of-stairs.jpg",
                "lang": "zxx"
            }
        ],
        "http:\/\/drupal.org\/rest\/relation\/node\/article\/field_tags": [
            {
                "href": "http:\/\/default\/tag\/people?_format=hal_json",
                "lang": "zxx"
            },
            {
                "href": "http:\/\/default\/tag\/social?_format=hal_json",
                "lang": "zxx"
            }
        ]
    },
    "nid": [
        {
            "value": 23
        }
    ],
    "uuid": [
        {
            "value": "ca8f639e-3022-406c-812c-2773aaf4a0a1"
        }
    ],
    "vid": [
        {
            "value": 23
        }
    ],
    "langcode": [
        {
            "value": "zxx",
            "lang": "zxx"
        }
    ],
    "type": [
        {
            "target_id": "article"
        }
    ],
    "revision_timestamp": [
        {
            "value": "2020-05-01T15:14:55+00:00",
            "format": "Y-m-d\\TH:i:sP"
        }
    ],
    "_embedded": {
        "http:\/\/drupal.org\/rest\/relation\/node\/article\/revision_uid": [
            {
                "_links": {
                    "self": {
                        "href": "http:\/\/default\/user\/3?_format=hal_json"
                    },
                    "type": {
                        "href": "http:\/\/drupal.org\/rest\/type\/user\/user"
                    }
                },
                "uuid": [
                    {
                        "value": "88b8f7ac-8875-4b8e-b57d-9db84aa0f7bd"
                    }
                ]
            }
        ],
        "http:\/\/drupal.org\/rest\/relation\/node\/article\/uid": [
            {
                "_links": {
                    "self": {
                        "href": "http:\/\/default\/user\/3?_format=hal_json"
                    },
                    "type": {
                        "href": "http:\/\/drupal.org\/rest\/type\/user\/user"
                    }
                },
                "uuid": [
                    {
                        "value": "88b8f7ac-8875-4b8e-b57d-9db84aa0f7bd"
                    }
                ],
                "lang": "zxx"
            }
        ],
        "http:\/\/drupal.org\/rest\/relation\/node\/article\/field_article_categories": [
            {
                "_links": {
                    "self": {
                        "href": "http:\/\/default\/category\/research?_format=hal_json"
                    },
                    "type": {
                        "href": "http:\/\/drupal.org\/rest\/type\/taxonomy_term\/article_categories"
                    }
                },
                "uuid": [
                    {
                        "value": "121c387e-7eff-4d6a-99bf-7210d81f1ebe"
                    }
                ]
            }
        ],
        "http:\/\/drupal.org\/rest\/relation\/node\/article\/field_article_type": [
            {
                "_links": {
                    "self": {
                        "href": "http:\/\/default\/taxonomy\/term\/1?_format=hal_json"
                    },
                    "type": {
                        "href": "http:\/\/drupal.org\/rest\/type\/taxonomy_term\/article_type"
                    }
                },
                "uuid": [
                    {
                        "value": "b5a74de6-04bb-4e17-8e59-8a5de02d4fe5"
                    }
                ]
            }
        ],
        "http:\/\/drupal.org\/rest\/relation\/node\/article\/field_image": [
            {
                "_links": {
                    "self": {
                        "href": "http:\/\/default\/sites\/default\/files\/2020-05\/man-holding-a-leather-bag-on-a-set-of-stairs.jpg"
                    },
                    "type": {
                        "href": "http:\/\/drupal.org\/rest\/type\/file\/file"
                    }
                },
                "uuid": [
                    {
                        "value": "25c8ad99-2aa9-497e-9db1-03c2a21f468e"
                    }
                ],
                "lang": "zxx"
            }
        ],
        "http:\/\/drupal.org\/rest\/relation\/node\/article\/field_tags": [
            {
                "_links": {
                    "self": {
                        "href": "http:\/\/default\/tag\/people?_format=hal_json"
                    },
                    "type": {
                        "href": "http:\/\/drupal.org\/rest\/type\/taxonomy_term\/tags"
                    }
                },
                "uuid": [
                    {
                        "value": "f683d74a-00a3-4685-9622-51257d469015"
                    }
                ],
                "lang": "zxx"
            },
            {
                "_links": {
                    "self": {
                        "href": "http:\/\/default\/tag\/social?_format=hal_json"
                    },
                    "type": {
                        "href": "http:\/\/drupal.org\/rest\/type\/taxonomy_term\/tags"
                    }
                },
                "uuid": [
                    {
                        "value": "6b4156d7-d1f1-46a9-b20e-73bde346e778"
                    }
                ],
                "lang": "zxx"
            }
        ]
    },
    "status": [
        {
            "value": true,
            "lang": "zxx"
        }
    ],
    "title": [
        {
            "value": "Vestibulum id vestibulum blandit",
            "lang": "zxx"
        }
    ],
    "created": [
        {
            "value": "2020-04-25T12:19:51+00:00",
            "lang": "zxx",
            "format": "Y-m-d\\TH:i:sP"
        }
    ],
    "changed": [
        {
            "value": "2020-05-01T15:45:55+00:00",
            "lang": "zxx",
            "format": "Y-m-d\\TH:i:sP"
        }
    ],
    "promote": [
        {
            "value": false,
            "lang": "zxx"
        }
    ],
    "sticky": [
        {
            "value": false,
            "lang": "zxx"
        }
    ],
    "default_langcode": [
        {
            "value": true,
            "lang": "zxx"
        }
    ],
    "revision_translation_affected": [
        {
            "value": true,
            "lang": "zxx"
        }
    ],
    "metatag": [
        {
            "value": {
                "title": "Vestibulum id vestibulum blandit | ITCross Starter Kit",
                "canonical_url": "http:\/\/default\/article\/vestibulum-id-vestibulum-blandit",
                "description": "Curabitur non mollis enim. Pellentesque quis diam non nisi fringilla dignissim eu consectetur ligula. Maecenas mollis tortor a felis sollicitudin, eu suscipit magna dapibus. Vestibulum ac vestibulum nunc, id pulvinar arcu. Praesent venenatis porta dolor, at lacinia metus venenatis a. Nulla tincidunt odio quis sem commodo, eu egestas augue sollicitudin."
            }
        }
    ],
    "path": [
        {
            "alias": "\/article\/vestibulum-id-vestibulum-blandit",
            "pid": 46,
            "langcode": "und",
            "lang": "zxx"
        }
    ],
    "body": [
        {
            "value": "<p>Curabitur non mollis enim. Pellentesque quis diam non nisi fringilla dignissim eu consectetur ligula. Maecenas mollis tortor a felis sollicitudin, eu suscipit magna dapibus. Vestibulum ac vestibulum nunc, id pulvinar arcu. Praesent venenatis porta dolor, at lacinia metus venenatis a. Nulla tincidunt odio quis sem commodo, eu egestas augue sollicitudin. Sed tincidunt turpis at porta suscipit. Etiam sed ex ac lacus mollis faucibus. Nullam posuere neque eu pellentesque hendrerit. Duis libero sem, fermentum id nulla nec, sagittis vestibulum sapien. Maecenas consequat, nibh id rutrum convallis, purus mi blandit sem, et bibendum nulla ante elementum dolor. Vivamus purus augue, tempor vel ornare eget, luctus volutpat lorem. Phasellus at ipsum neque.<\/p>\r\n\r\n<p>Nulla tempor velit id tortor sollicitudin, at rhoncus augue congue. Aliquam hendrerit sagittis ullamcorper. Mauris in lacinia tellus. Sed sagittis nisi massa, varius ullamcorper diam venenatis id. Pellentesque non bibendum orci. Nullam ut luctus diam. Nunc eleifend in sem at fermentum. Cras ultrices eros at augue ultricies auctor. Ut sodales feugiat tempor. Proin neque eros, mattis sit amet dictum et, suscipit quis nisi. Nunc molestie, nisl et accumsan feugiat, leo leo malesuada metus, sed rhoncus dui est sit amet lacus. Cras quis turpis consectetur, finibus lorem in, venenatis nibh. Vestibulum id vestibulum ex. Donec sagittis eget lorem nec lacinia.<\/p>\r\n",
            "format": "basic_html",
            "processed": "<p>Curabitur non mollis enim. Pellentesque quis diam non nisi fringilla dignissim eu consectetur ligula. Maecenas mollis tortor a felis sollicitudin, eu suscipit magna dapibus. Vestibulum ac vestibulum nunc, id pulvinar arcu. Praesent venenatis porta dolor, at lacinia metus venenatis a. Nulla tincidunt odio quis sem commodo, eu egestas augue sollicitudin. Sed tincidunt turpis at porta suscipit. Etiam sed ex ac lacus mollis faucibus. Nullam posuere neque eu pellentesque hendrerit. Duis libero sem, fermentum id nulla nec, sagittis vestibulum sapien. Maecenas consequat, nibh id rutrum convallis, purus mi blandit sem, et bibendum nulla ante elementum dolor. Vivamus purus augue, tempor vel ornare eget, luctus volutpat lorem. Phasellus at ipsum neque.<\/p>\n\n<p>Nulla tempor velit id tortor sollicitudin, at rhoncus augue congue. Aliquam hendrerit sagittis ullamcorper. Mauris in lacinia tellus. Sed sagittis nisi massa, varius ullamcorper diam venenatis id. Pellentesque non bibendum orci. Nullam ut luctus diam. Nunc eleifend in sem at fermentum. Cras ultrices eros at augue ultricies auctor. Ut sodales feugiat tempor. Proin neque eros, mattis sit amet dictum et, suscipit quis nisi. Nunc molestie, nisl et accumsan feugiat, leo leo malesuada metus, sed rhoncus dui est sit amet lacus. Cras quis turpis consectetur, finibus lorem in, venenatis nibh. Vestibulum id vestibulum ex. Donec sagittis eget lorem nec lacinia.<\/p>",
            "summary": "Curabitur non mollis enim. Pellentesque quis diam non nisi fringilla dignissim eu consectetur ligula. Maecenas mollis tortor a felis sollicitudin, eu suscipit magna dapibus. Vestibulum ac vestibulum nunc, id pulvinar arcu. Praesent venenatis porta dolor, at lacinia metus venenatis a. Nulla tincidunt odio quis sem commodo, eu egestas augue sollicitudin. ",
            "lang": "zxx"
        }
    ],
    "comment": [
        {
            "status": 1,
            "cid": 0,
            "last_comment_timestamp": 1588346095,
            "last_comment_name": null,
            "last_comment_uid": 3,
            "comment_count": 0,
            "lang": "zxx"
        }
    ]
}