{
    "_links": {
        "self": {
            "href": "http:\/\/default\/home?_format=hal_json"
        },
        "type": {
            "href": "http:\/\/drupal.org\/rest\/type\/node\/page"
        },
        "http:\/\/drupal.org\/rest\/relation\/node\/page\/revision_uid": [
            {
                "href": "http:\/\/default\/user\/1?_format=hal_json"
            }
        ],
        "http:\/\/drupal.org\/rest\/relation\/node\/page\/uid": [
            {
                "href": "http:\/\/default\/user\/1?_format=hal_json",
                "lang": "en"
            }
        ]
    },
    "nid": [
        {
            "value": 1
        }
    ],
    "uuid": [
        {
            "value": "d85b614a-72c0-41ec-8727-cd8112d8b53f"
        }
    ],
    "vid": [
        {
            "value": 1
        }
    ],
    "langcode": [
        {
            "value": "en",
            "lang": "en"
        }
    ],
    "type": [
        {
            "target_id": "page"
        }
    ],
    "revision_timestamp": [
        {
            "value": "2019-08-04T06:00:06+00:00",
            "format": "Y-m-d\\TH:i:sP"
        }
    ],
    "_embedded": {
        "http:\/\/drupal.org\/rest\/relation\/node\/page\/revision_uid": [
            {
                "_links": {
                    "self": {
                        "href": "http:\/\/default\/user\/1?_format=hal_json"
                    },
                    "type": {
                        "href": "http:\/\/drupal.org\/rest\/type\/user\/user"
                    }
                },
                "uuid": [
                    {
                        "value": "a1bc2276-252f-4bee-9995-acc49610a920"
                    }
                ]
            }
        ],
        "http:\/\/drupal.org\/rest\/relation\/node\/page\/uid": [
            {
                "_links": {
                    "self": {
                        "href": "http:\/\/default\/user\/1?_format=hal_json"
                    },
                    "type": {
                        "href": "http:\/\/drupal.org\/rest\/type\/user\/user"
                    }
                },
                "uuid": [
                    {
                        "value": "a1bc2276-252f-4bee-9995-acc49610a920"
                    }
                ],
                "lang": "en"
            }
        ]
    },
    "status": [
        {
            "value": true,
            "lang": "en"
        }
    ],
    "title": [
        {
            "value": "ITCross Starter Kit",
            "lang": "en"
        }
    ],
    "created": [
        {
            "value": "2019-08-04T05:59:16+00:00",
            "lang": "en",
            "format": "Y-m-d\\TH:i:sP"
        }
    ],
    "changed": [
        {
            "value": "2020-05-05T07:15:44+00:00",
            "lang": "en",
            "format": "Y-m-d\\TH:i:sP"
        }
    ],
    "promote": [
        {
            "value": false
        }
    ],
    "sticky": [
        {
            "value": false,
            "lang": "en"
        }
    ],
    "default_langcode": [
        {
            "value": true,
            "lang": "en"
        }
    ],
    "revision_translation_affected": [
        {
            "value": true,
            "lang": "en"
        }
    ],
    "metatag": [
        {
            "value": {
                "title": "ITCross Starter Kit | ITCross Starter Kit",
                "canonical_url": "http:\/\/default\/itcross-starter-kit"
            }
        }
    ],
    "path": [
        {
            "alias": "\/itcross-starter-kit",
            "pid": 6,
            "langcode": "en",
            "lang": "en"
        }
    ],
    "layout_builder__layout": [
        {
            "section": {
                "layout_id": "layout_onecol",
                "layout_settings": {
                    "label": ""
                },
                "components": {
                    "e121eda2-330a-43fb-830d-a9c5214b3a31": {
                        "uuid": "e121eda2-330a-43fb-830d-a9c5214b3a31",
                        "region": "content",
                        "configuration": {
                            "id": "views_block:articles-articles_summary_block",
                            "label": "",
                            "provider": "views",
                            "label_display": "visible",
                            "views_label": "",
                            "items_per_page": "none",
                            "context_mapping": []
                        },
                        "additional": [],
                        "weight": "-9"
                    },
                    "6989747b-5c77-4b47-9403-6b67d23396ab": {
                        "uuid": "6989747b-5c77-4b47-9403-6b67d23396ab",
                        "region": "content",
                        "configuration": {
                            "id": "views_block:articles-blog_summary_block",
                            "label": "",
                            "provider": "views",
                            "label_display": "visible",
                            "views_label": "",
                            "items_per_page": "none",
                            "context_mapping": []
                        },
                        "additional": [],
                        "weight": "-8"
                    },
                    "c1132ad7-c14b-4c66-9458-d268755529a1": {
                        "uuid": "c1132ad7-c14b-4c66-9458-d268755529a1",
                        "region": "content",
                        "configuration": {
                            "id": "views_block:articles-news_summary_block",
                            "label": "",
                            "provider": "views",
                            "label_display": "visible",
                            "views_label": "",
                            "items_per_page": "none",
                            "context_mapping": []
                        },
                        "additional": [],
                        "weight": "-10"
                    }
                },
                "third_party_settings": []
            }
        },
        {
            "section": {
                "layout_id": "layout_onecol",
                "layout_settings": {
                    "label": ""
                },
                "components": {
                    "888a3c76-34b6-40cc-9782-6c36f45ff8f3": {
                        "uuid": "888a3c76-34b6-40cc-9782-6c36f45ff8f3",
                        "region": "content",
                        "configuration": {
                            "label_display": "0",
                            "context_mapping": {
                                "entity": "layout_builder.entity"
                            },
                            "id": "field_block:node:page:body",
                            "formatter": {
                                "label": "hidden",
                                "type": "text_default",
                                "settings": [],
                                "third_party_settings": []
                            }
                        },
                        "additional": [],
                        "weight": 0
                    },
                    "f0bca9d0-7782-4226-8ab4-425c91bea7eb": {
                        "uuid": "f0bca9d0-7782-4226-8ab4-425c91bea7eb",
                        "region": "content",
                        "configuration": {
                            "label_display": "0",
                            "context_mapping": {
                                "entity": "layout_builder.entity"
                            },
                            "id": "extra_field_block:node:page:links"
                        },
                        "additional": [],
                        "weight": 1
                    }
                },
                "third_party_settings": []
            }
        }
    ]
}
