{
    "_links": {
        "self": {
            "href": "http:\/\/default\/blog\/pellentesque-non-bibendum-claritatem?_format=hal_json"
        },
        "type": {
            "href": "http:\/\/drupal.org\/rest\/type\/node\/article"
        },
        "http:\/\/drupal.org\/rest\/relation\/node\/article\/revision_uid": [
            {
                "href": "http:\/\/default\/user\/0?_format=hal_json"
            }
        ],
        "http:\/\/drupal.org\/rest\/relation\/node\/article\/uid": [
            {
                "href": "http:\/\/default\/user\/0?_format=hal_json",
                "lang": "zxx"
            }
        ],
        "http:\/\/drupal.org\/rest\/relation\/node\/article\/field_article_categories": [
            {
                "href": "http:\/\/default\/category\/professionals?_format=hal_json"
            }
        ],
        "http:\/\/drupal.org\/rest\/relation\/node\/article\/field_article_type": [
            {
                "href": "http:\/\/default\/taxonomy\/term\/3?_format=hal_json"
            }
        ],
        "http:\/\/drupal.org\/rest\/relation\/node\/article\/field_image": [
            {
                "href": "http:\/\/default\/sites\/default\/files\/2020-05\/flat-lay-of-products-on-blue.jpg",
                "lang": "zxx"
            }
        ],
        "http:\/\/drupal.org\/rest\/relation\/node\/article\/field_tags": [
            {
                "href": "http:\/\/default\/tag\/people?_format=hal_json",
                "lang": "zxx"
            }
        ]
    },
    "nid": [
        {
            "value": 29
        }
    ],
    "uuid": [
        {
            "value": "ec16f267-1120-4eff-a1ce-86104a710e69"
        }
    ],
    "vid": [
        {
            "value": 29
        }
    ],
    "langcode": [
        {
            "value": "zxx",
            "lang": "zxx"
        }
    ],
    "type": [
        {
            "target_id": "article"
        }
    ],
    "revision_timestamp": [
        {
            "value": "2020-05-01T15:14:55+00:00",
            "format": "Y-m-d\\TH:i:sP"
        }
    ],
    "_embedded": {
        "http:\/\/drupal.org\/rest\/relation\/node\/article\/revision_uid": [
            {
                "_links": {
                    "self": {
                        "href": "http:\/\/default\/user\/0?_format=hal_json"
                    },
                    "type": {
                        "href": "http:\/\/drupal.org\/rest\/type\/user\/user"
                    }
                },
                "uuid": [
                    {
                        "value": "a84080bc-5fdb-4768-b3f4-6f57576017ee"
                    }
                ]
            }
        ],
        "http:\/\/drupal.org\/rest\/relation\/node\/article\/uid": [
            {
                "_links": {
                    "self": {
                        "href": "http:\/\/default\/user\/0?_format=hal_json"
                    },
                    "type": {
                        "href": "http:\/\/drupal.org\/rest\/type\/user\/user"
                    }
                },
                "uuid": [
                    {
                        "value": "a84080bc-5fdb-4768-b3f4-6f57576017ee"
                    }
                ],
                "lang": "zxx"
            }
        ],
        "http:\/\/drupal.org\/rest\/relation\/node\/article\/field_article_categories": [
            {
                "_links": {
                    "self": {
                        "href": "http:\/\/default\/category\/professionals?_format=hal_json"
                    },
                    "type": {
                        "href": "http:\/\/drupal.org\/rest\/type\/taxonomy_term\/article_categories"
                    }
                },
                "uuid": [
                    {
                        "value": "3be82bdf-89fb-47f2-813c-0991504a2f96"
                    }
                ]
            }
        ],
        "http:\/\/drupal.org\/rest\/relation\/node\/article\/field_article_type": [
            {
                "_links": {
                    "self": {
                        "href": "http:\/\/default\/taxonomy\/term\/3?_format=hal_json"
                    },
                    "type": {
                        "href": "http:\/\/drupal.org\/rest\/type\/taxonomy_term\/article_type"
                    }
                },
                "uuid": [
                    {
                        "value": "4bbec976-0c46-475d-b7c1-18e94a59ec3d"
                    }
                ]
            }
        ],
        "http:\/\/drupal.org\/rest\/relation\/node\/article\/field_image": [
            {
                "_links": {
                    "self": {
                        "href": "http:\/\/default\/sites\/default\/files\/2020-05\/flat-lay-of-products-on-blue.jpg"
                    },
                    "type": {
                        "href": "http:\/\/drupal.org\/rest\/type\/file\/file"
                    }
                },
                "uuid": [
                    {
                        "value": "3049a283-709c-46eb-96a6-5f1d7e740ee9"
                    }
                ],
                "lang": "zxx"
            }
        ],
        "http:\/\/drupal.org\/rest\/relation\/node\/article\/field_tags": [
            {
                "_links": {
                    "self": {
                        "href": "http:\/\/default\/tag\/people?_format=hal_json"
                    },
                    "type": {
                        "href": "http:\/\/drupal.org\/rest\/type\/taxonomy_term\/tags"
                    }
                },
                "uuid": [
                    {
                        "value": "f683d74a-00a3-4685-9622-51257d469015"
                    }
                ],
                "lang": "zxx"
            }
        ]
    },
    "status": [
        {
            "value": true,
            "lang": "zxx"
        }
    ],
    "title": [
        {
            "value": "Pellentesque non bibendum claritatem",
            "lang": "zxx"
        }
    ],
    "created": [
        {
            "value": "2020-04-29T17:41:26+00:00",
            "lang": "zxx",
            "format": "Y-m-d\\TH:i:sP"
        }
    ],
    "changed": [
        {
            "value": "2020-05-01T15:56:06+00:00",
            "lang": "zxx",
            "format": "Y-m-d\\TH:i:sP"
        }
    ],
    "promote": [
        {
            "value": true,
            "lang": "zxx"
        }
    ],
    "sticky": [
        {
            "value": false,
            "lang": "zxx"
        }
    ],
    "default_langcode": [
        {
            "value": true,
            "lang": "zxx"
        }
    ],
    "revision_translation_affected": [
        {
            "value": true,
            "lang": "zxx"
        }
    ],
    "metatag": [
        {
            "value": {
                "title": "Pellentesque non bibendum claritatem | ITCross Starter Kit",
                "canonical_url": "http:\/\/default\/blog\/pellentesque-non-bibendum-claritatem",
                "description": "Nulla tempor velit id tortor sollicitudin, at rhoncus augue congue. Aliquam hendrerit sagittis ullamcorper. Mauris in lacinia tellus. Sed sagittis nisi massa, varius ullamcorper diam venenatis id. Pellentesque non bibendum orci. Nullam ut luctus diam. Nunc eleifend in sem at fermentum."
            }
        }
    ],
    "path": [
        {
            "alias": "\/blog\/pellentesque-non-bibendum-claritatem",
            "pid": 58,
            "langcode": "und",
            "lang": "zxx"
        }
    ],
    "body": [
        {
            "value": "<p>Ipsum <strong>ipsum dolor sit amet<\/strong> <em>consectetuer adipiscing elit, sed diam nonummy nibh euismod tincidunt ut laoreet dolore magna aliquam erat volutpat. Ut wisi enim ad minim veniam, quis nostrud exerci tation ullamcorper suscipit lobortis nisl ut aliquip ex ea commodo consequat. Duis autem vel eum iriure dolor in hendrerit in vulputate velit esse molestie consequat, vel<\/em> <strong>illum dolore eu feugiat nulla <em>facilisis at vero eros et accumsan et iusto odio dignissim qui blandit praesent luptatum zzril delenit augue duis dolore te feugait nulla facilisi. Nam liber tempor cum soluta nobis eleifend option congue nihil imperdiet doming id quod mazim placerat facer possim assum. <\/em><\/strong><\/p>\r\n\r\n<p><strong><em>Typi non habent claritatem insitam; est usus legentis in iis qui facit eorum<\/em> claritatem. Investigationes demonstraverunt lectores legere me lius quod ii legunt saepius. Claritas est etiam processus dynamicus, qui sequitur mutationem consuetudium lectorum. Mirum est notare quam littera gothica, quam nunc putamus parum claram, anteposuerit litterarum formas humanitatis per seacula quarta decima et quinta decima. Eodem modo typi, qui nunc nobis videntur parum clari, fiant sollemnes in futurum.<\/strong><\/p>\r\n",
            "format": "full_html",
            "processed": "<p>Ipsum <strong>ipsum dolor sit amet<\/strong> <em>consectetuer adipiscing elit, sed diam nonummy nibh euismod tincidunt ut laoreet dolore magna aliquam erat volutpat. Ut wisi enim ad minim veniam, quis nostrud exerci tation ullamcorper suscipit lobortis nisl ut aliquip ex ea commodo consequat. Duis autem vel eum iriure dolor in hendrerit in vulputate velit esse molestie consequat, vel<\/em> <strong>illum dolore eu feugiat nulla <em>facilisis at vero eros et accumsan et iusto odio dignissim qui blandit praesent luptatum zzril delenit augue duis dolore te feugait nulla facilisi. Nam liber tempor cum soluta nobis eleifend option congue nihil imperdiet doming id quod mazim placerat facer possim assum. <\/em><\/strong><\/p>\n\n<p><strong><em>Typi non habent claritatem insitam; est usus legentis in iis qui facit eorum<\/em> claritatem. Investigationes demonstraverunt lectores legere me lius quod ii legunt saepius. Claritas est etiam processus dynamicus, qui sequitur mutationem consuetudium lectorum. Mirum est notare quam littera gothica, quam nunc putamus parum claram, anteposuerit litterarum formas humanitatis per seacula quarta decima et quinta decima. Eodem modo typi, qui nunc nobis videntur parum clari, fiant sollemnes in futurum.<\/strong><\/p>\n",
            "summary": "Nulla tempor velit id tortor sollicitudin, at rhoncus augue congue. Aliquam hendrerit sagittis ullamcorper. Mauris in lacinia tellus. Sed sagittis nisi massa, varius ullamcorper diam venenatis id. Pellentesque non bibendum orci. Nullam ut luctus diam. Nunc eleifend in sem at fermentum. ",
            "lang": "zxx"
        }
    ],
    "comment": [
        {
            "status": 1,
            "cid": 0,
            "last_comment_timestamp": 1588346095,
            "last_comment_name": null,
            "last_comment_uid": 0,
            "comment_count": 0,
            "lang": "zxx"
        }
    ]
}