{
    "_links": {
        "self": {
            "href": "http:\/\/default\/article\/quisque?_format=hal_json"
        },
        "type": {
            "href": "http:\/\/drupal.org\/rest\/type\/node\/article"
        },
        "http:\/\/drupal.org\/rest\/relation\/node\/article\/revision_uid": [
            {
                "href": "http:\/\/default\/user\/1?_format=hal_json"
            }
        ],
        "http:\/\/drupal.org\/rest\/relation\/node\/article\/uid": [
            {
                "href": "http:\/\/default\/user\/1?_format=hal_json",
                "lang": "en"
            }
        ],
        "http:\/\/drupal.org\/rest\/relation\/node\/article\/field_article_categories": [
            {
                "href": "http:\/\/default\/category\/professionals?_format=hal_json"
            }
        ],
        "http:\/\/drupal.org\/rest\/relation\/node\/article\/field_article_type": [
            {
                "href": "http:\/\/default\/taxonomy\/term\/1?_format=hal_json"
            }
        ],
        "http:\/\/drupal.org\/rest\/relation\/node\/article\/field_image": [
            {
                "href": "http:\/\/default\/sites\/default\/files\/2020-05\/large-group-standing-in-office_0.jpg",
                "lang": "en"
            }
        ],
        "http:\/\/drupal.org\/rest\/relation\/node\/article\/field_tags": [
            {
                "href": "http:\/\/default\/tag\/historical?_format=hal_json",
                "lang": "en"
            }
        ]
    },
    "nid": [
        {
            "value": 40
        }
    ],
    "uuid": [
        {
            "value": "f07941d6-b0c4-4cbb-be42-822a6930a36b"
        }
    ],
    "vid": [
        {
            "value": 40
        }
    ],
    "langcode": [
        {
            "value": "en",
            "lang": "en"
        }
    ],
    "type": [
        {
            "target_id": "article"
        }
    ],
    "revision_timestamp": [
        {
            "value": "2020-05-01T15:14:55+00:00",
            "format": "Y-m-d\\TH:i:sP"
        }
    ],
    "_embedded": {
        "http:\/\/drupal.org\/rest\/relation\/node\/article\/revision_uid": [
            {
                "_links": {
                    "self": {
                        "href": "http:\/\/default\/user\/1?_format=hal_json"
                    },
                    "type": {
                        "href": "http:\/\/drupal.org\/rest\/type\/user\/user"
                    }
                },
                "uuid": [
                    {
                        "value": "a1bc2276-252f-4bee-9995-acc49610a920"
                    }
                ]
            }
        ],
        "http:\/\/drupal.org\/rest\/relation\/node\/article\/uid": [
            {
                "_links": {
                    "self": {
                        "href": "http:\/\/default\/user\/1?_format=hal_json"
                    },
                    "type": {
                        "href": "http:\/\/drupal.org\/rest\/type\/user\/user"
                    }
                },
                "uuid": [
                    {
                        "value": "a1bc2276-252f-4bee-9995-acc49610a920"
                    }
                ],
                "lang": "en"
            }
        ],
        "http:\/\/drupal.org\/rest\/relation\/node\/article\/field_article_categories": [
            {
                "_links": {
                    "self": {
                        "href": "http:\/\/default\/category\/professionals?_format=hal_json"
                    },
                    "type": {
                        "href": "http:\/\/drupal.org\/rest\/type\/taxonomy_term\/article_categories"
                    }
                },
                "uuid": [
                    {
                        "value": "3be82bdf-89fb-47f2-813c-0991504a2f96"
                    }
                ]
            }
        ],
        "http:\/\/drupal.org\/rest\/relation\/node\/article\/field_article_type": [
            {
                "_links": {
                    "self": {
                        "href": "http:\/\/default\/taxonomy\/term\/1?_format=hal_json"
                    },
                    "type": {
                        "href": "http:\/\/drupal.org\/rest\/type\/taxonomy_term\/article_type"
                    }
                },
                "uuid": [
                    {
                        "value": "b5a74de6-04bb-4e17-8e59-8a5de02d4fe5"
                    }
                ]
            }
        ],
        "http:\/\/drupal.org\/rest\/relation\/node\/article\/field_image": [
            {
                "_links": {
                    "self": {
                        "href": "http:\/\/default\/sites\/default\/files\/2020-05\/large-group-standing-in-office_0.jpg"
                    },
                    "type": {
                        "href": "http:\/\/drupal.org\/rest\/type\/file\/file"
                    }
                },
                "uuid": [
                    {
                        "value": "1b6ad114-ea16-465d-b58d-0d4ae62b3c64"
                    }
                ],
                "lang": "en"
            }
        ],
        "http:\/\/drupal.org\/rest\/relation\/node\/article\/field_tags": [
            {
                "_links": {
                    "self": {
                        "href": "http:\/\/default\/tag\/historical?_format=hal_json"
                    },
                    "type": {
                        "href": "http:\/\/drupal.org\/rest\/type\/taxonomy_term\/tags"
                    }
                },
                "uuid": [
                    {
                        "value": "46db9a99-f403-42e7-9902-e2821a1230e4"
                    }
                ],
                "lang": "en"
            }
        ]
    },
    "status": [
        {
            "value": true,
            "lang": "en"
        }
    ],
    "title": [
        {
            "value": "Quisque",
            "lang": "en"
        }
    ],
    "created": [
        {
            "value": "2022-06-24T20:18:23+00:00",
            "lang": "en",
            "format": "Y-m-d\\TH:i:sP"
        }
    ],
    "changed": [
        {
            "value": "2020-05-06T16:10:13+00:00",
            "lang": "en",
            "format": "Y-m-d\\TH:i:sP"
        }
    ],
    "promote": [
        {
            "value": true,
            "lang": "en"
        }
    ],
    "sticky": [
        {
            "value": false,
            "lang": "en"
        }
    ],
    "default_langcode": [
        {
            "value": true,
            "lang": "en"
        }
    ],
    "revision_translation_affected": [
        {
            "value": true,
            "lang": "en"
        }
    ],
    "metatag": [
        {
            "value": {
                "title": "Quisque | ITCross Starter Kit",
                "canonical_url": "http:\/\/default\/article\/quisque",
                "description": "Ribero vestibulum nibh, vitae laoreet risus risus non odio. Etiam risus leo, tempor at ligula vitae, tincidunt aliquet tortor. Integer accumsan nisl posuere, elementum metus vitae, scelerisque dolor. Maecenas ac felis id eros scelerisque aliquam. Praesent accumsan consectetur libero, vitae fringilla diam. Integer posuere aliquet ligula congue vestibulum."
            }
        }
    ],
    "path": [
        {
            "alias": "\/article\/quisque",
            "pid": 80,
            "langcode": "en",
            "lang": "en"
        }
    ],
    "body": [
        {
            "value": "<p>Morbi vel dui pulvinar, sodales orci eget, mollis enim. Class aptent taciti sociosqu ad litora torquent per conubia nostra, per inceptos himenaeos. Quisque turpis est, imperdiet congue sodales vitae, porttitor quis risus. Nunc luctus porttitor sem, id placerat diam placerat a. Integer congue urna neque, eu vehicula nulla aliquet vel. Nulla luctus felis in dui iaculis cursus. Maecenas aliquet, neque eu congue ultricies, mauris leo ultrices tortor, eget sodales quam quam id sapien. Aliquam augue metus, ultricies eget massa in, tristique aliquam neque. Vestibulum fermentum dignissim lectus non mattis. Nam non fermentum lorem, sit amet sagittis tellus. Aenean fermentum hendrerit luctus. Nullam et nisl nisi. Curabitur interdum quam at erat interdum mollis.<\/p>\r\n\r\n<p>In sollicitudin eros diam. Sed porttitor pharetra tellus id elementum. Nulla ex tortor, facilisis id fringilla ac, dapibus id mi. Praesent convallis, felis rutrum congue ornare, augue libero vestibulum nibh, vitae laoreet risus risus non odio. Etiam risus leo, tempor at ligula vitae, tincidunt aliquet tortor. Integer accumsan nisl posuere, elementum metus vitae, scelerisque dolor. Maecenas ac felis id eros scelerisque aliquam. Praesent accumsan consectetur libero, vitae fringilla diam. Integer posuere aliquet ligula congue vestibulum. Fusce bibendum aliquam magna vitae finibus. Mauris magna sapien, iaculis eu auctor ut, imperdiet a felis. Curabitur egestas convallis mi, quis bibendum magna blandit sit amet. In hac habitasse platea dictumst. Praesent venenatis dolor eget tortor faucibus porttitor. Donec vulputate dolor nisi, sed interdum felis accumsan at.<\/p>\r\n\r\n<p>Quisque tempor tortor ac est cursus egestas. Pellentesque vitae arcu dolor. Fusce lacinia massa arcu, ut rutrum augue dapibus vel. Vestibulum vehicula mattis eros, in tincidunt magna convallis at. Morbi id orci lectus. Quisque eu ante orci. Vestibulum et aliquam diam. Vivamus egestas sapien purus, id condimentum elit mollis eget.<\/p>\r\n\r\n<p>Donec vehicula, dolor in aliquam malesuada, nibh arcu convallis eros, id rhoncus turpis leo id felis. Pellentesque pellentesque molestie facilisis. Aenean lectus velit, vehicula sed velit sed, rhoncus scelerisque lorem. Sed id euismod libero, sit amet venenatis sem. Aenean ac est at felis scelerisque bibendum id at erat. Donec at velit nisl. Maecenas in lobortis turpis. Quisque in blandit tellus. Ut elementum congue sapien. Ut commodo lacus ac eleifend ultrices. Donec in neque tempor, vulputate tellus sed, venenatis erat. Phasellus tristique, justo at dictum suscipit, mi enim viverra nulla, nec suscipit turpis urna quis dui. Integer placerat justo ut justo condimentum, id consequat velit tristique. Fusce bibendum egestas orci vitae condimentum. Nam venenatis quam mi, sit amet fringilla risus consequat a. Vivamus magna erat, luctus sed vehicula eget, porttitor vel dolor.<\/p>\r\n",
            "format": "basic_html",
            "processed": "<p>Morbi vel dui pulvinar, sodales orci eget, mollis enim. Class aptent taciti sociosqu ad litora torquent per conubia nostra, per inceptos himenaeos. Quisque turpis est, imperdiet congue sodales vitae, porttitor quis risus. Nunc luctus porttitor sem, id placerat diam placerat a. Integer congue urna neque, eu vehicula nulla aliquet vel. Nulla luctus felis in dui iaculis cursus. Maecenas aliquet, neque eu congue ultricies, mauris leo ultrices tortor, eget sodales quam quam id sapien. Aliquam augue metus, ultricies eget massa in, tristique aliquam neque. Vestibulum fermentum dignissim lectus non mattis. Nam non fermentum lorem, sit amet sagittis tellus. Aenean fermentum hendrerit luctus. Nullam et nisl nisi. Curabitur interdum quam at erat interdum mollis.<\/p>\n\n<p>In sollicitudin eros diam. Sed porttitor pharetra tellus id elementum. Nulla ex tortor, facilisis id fringilla ac, dapibus id mi. Praesent convallis, felis rutrum congue ornare, augue libero vestibulum nibh, vitae laoreet risus risus non odio. Etiam risus leo, tempor at ligula vitae, tincidunt aliquet tortor. Integer accumsan nisl posuere, elementum metus vitae, scelerisque dolor. Maecenas ac felis id eros scelerisque aliquam. Praesent accumsan consectetur libero, vitae fringilla diam. Integer posuere aliquet ligula congue vestibulum. Fusce bibendum aliquam magna vitae finibus. Mauris magna sapien, iaculis eu auctor ut, imperdiet a felis. Curabitur egestas convallis mi, quis bibendum magna blandit sit amet. In hac habitasse platea dictumst. Praesent venenatis dolor eget tortor faucibus porttitor. Donec vulputate dolor nisi, sed interdum felis accumsan at.<\/p>\n\n<p>Quisque tempor tortor ac est cursus egestas. Pellentesque vitae arcu dolor. Fusce lacinia massa arcu, ut rutrum augue dapibus vel. Vestibulum vehicula mattis eros, in tincidunt magna convallis at. Morbi id orci lectus. Quisque eu ante orci. Vestibulum et aliquam diam. Vivamus egestas sapien purus, id condimentum elit mollis eget.<\/p>\n\n<p>Donec vehicula, dolor in aliquam malesuada, nibh arcu convallis eros, id rhoncus turpis leo id felis. Pellentesque pellentesque molestie facilisis. Aenean lectus velit, vehicula sed velit sed, rhoncus scelerisque lorem. Sed id euismod libero, sit amet venenatis sem. Aenean ac est at felis scelerisque bibendum id at erat. Donec at velit nisl. Maecenas in lobortis turpis. Quisque in blandit tellus. Ut elementum congue sapien. Ut commodo lacus ac eleifend ultrices. Donec in neque tempor, vulputate tellus sed, venenatis erat. Phasellus tristique, justo at dictum suscipit, mi enim viverra nulla, nec suscipit turpis urna quis dui. Integer placerat justo ut justo condimentum, id consequat velit tristique. Fusce bibendum egestas orci vitae condimentum. Nam venenatis quam mi, sit amet fringilla risus consequat a. Vivamus magna erat, luctus sed vehicula eget, porttitor vel dolor.<\/p>",
            "summary": "Ribero vestibulum nibh, vitae laoreet risus risus non odio. Etiam risus leo, tempor at ligula vitae, tincidunt aliquet tortor. Integer accumsan nisl posuere, elementum metus vitae, scelerisque dolor. Maecenas ac felis id eros scelerisque aliquam. Praesent accumsan consectetur libero, vitae fringilla diam. Integer posuere aliquet ligula congue vestibulum. ",
            "lang": "en"
        }
    ],
    "comment": [
        {
            "status": 0,
            "cid": 0,
            "last_comment_timestamp": 1588346095,
            "last_comment_name": null,
            "last_comment_uid": 1,
            "comment_count": 0,
            "lang": "en"
        }
    ]
}