{
    "_links": {
        "self": {
            "href": "http:\/\/default\/node\/55?_format=hal_json"
        },
        "type": {
            "href": "http:\/\/drupal.org\/rest\/type\/node\/banner"
        },
        "http:\/\/drupal.org\/rest\/relation\/node\/banner\/revision_uid": [
            {
                "href": "http:\/\/default\/user\/1?_format=hal_json"
            }
        ],
        "http:\/\/drupal.org\/rest\/relation\/node\/banner\/uid": [
            {
                "href": "http:\/\/default\/user\/1?_format=hal_json",
                "lang": "en"
            }
        ],
        "http:\/\/drupal.org\/rest\/relation\/node\/banner\/field_image": [
            {
                "href": "http:\/\/default\/sites\/default\/files\/2020-05\/hand-holding-phone-taking-photo.jpg",
                "lang": "en"
            }
        ]
    },
    "nid": [
        {
            "value": 55
        }
    ],
    "uuid": [
        {
            "value": "625a5ad8-720c-4691-a870-60c086f05733"
        }
    ],
    "vid": [
        {
            "value": 55
        }
    ],
    "langcode": [
        {
            "value": "en",
            "lang": "en"
        }
    ],
    "type": [
        {
            "target_id": "banner"
        }
    ],
    "revision_timestamp": [
        {
            "value": "2020-05-16T14:43:52+00:00",
            "format": "Y-m-d\\TH:i:sP"
        }
    ],
    "_embedded": {
        "http:\/\/drupal.org\/rest\/relation\/node\/banner\/revision_uid": [
            {
                "_links": {
                    "self": {
                        "href": "http:\/\/default\/user\/1?_format=hal_json"
                    },
                    "type": {
                        "href": "http:\/\/drupal.org\/rest\/type\/user\/user"
                    }
                },
                "uuid": [
                    {
                        "value": "a1bc2276-252f-4bee-9995-acc49610a920"
                    }
                ]
            }
        ],
        "http:\/\/drupal.org\/rest\/relation\/node\/banner\/uid": [
            {
                "_links": {
                    "self": {
                        "href": "http:\/\/default\/user\/1?_format=hal_json"
                    },
                    "type": {
                        "href": "http:\/\/drupal.org\/rest\/type\/user\/user"
                    }
                },
                "uuid": [
                    {
                        "value": "a1bc2276-252f-4bee-9995-acc49610a920"
                    }
                ],
                "lang": "en"
            }
        ],
        "http:\/\/drupal.org\/rest\/relation\/node\/banner\/field_image": [
            {
                "_links": {
                    "self": {
                        "href": "http:\/\/default\/sites\/default\/files\/2020-05\/hand-holding-phone-taking-photo.jpg"
                    },
                    "type": {
                        "href": "http:\/\/drupal.org\/rest\/type\/file\/file"
                    }
                },
                "uuid": [
                    {
                        "value": "05c14bd6-0ab2-4b8d-9850-08dc7f6aa5ac"
                    }
                ],
                "lang": "en"
            }
        ]
    },
    "status": [
        {
            "value": true,
            "lang": "en"
        }
    ],
    "title": [
        {
            "value": "Banner 10",
            "lang": "en"
        }
    ],
    "created": [
        {
            "value": "2020-05-16T14:42:54+00:00",
            "lang": "en",
            "format": "Y-m-d\\TH:i:sP"
        }
    ],
    "changed": [
        {
            "value": "2020-05-20T19:25:44+00:00",
            "lang": "en",
            "format": "Y-m-d\\TH:i:sP"
        }
    ],
    "promote": [
        {
            "value": false,
            "lang": "en"
        }
    ],
    "sticky": [
        {
            "value": false,
            "lang": "en"
        }
    ],
    "default_langcode": [
        {
            "value": true,
            "lang": "en"
        }
    ],
    "revision_translation_affected": [
        {
            "value": true,
            "lang": "en"
        }
    ],
    "metatag": [
        {
            "value": {
                "title": "Banner 10 | ITCross Starter Kit",
                "canonical_url": "http:\/\/default\/node\/55",
                "description": "Lorem ipsum\n\ndolor sit amet, consectetur adipiscing elit, sed do eiusmod tempor incididunt ut labore et dolore magna aliqua. Ut enim ad minim veniam, quis nostrud exercitation ullamco laboris nisi ut aliquip ex ea commodo consequat.\u00a0\n\nOrder Now"
            }
        }
    ],
    "path": [
        {
            "alias": null,
            "pid": null,
            "langcode": "en",
            "lang": "en"
        }
    ],
    "body": [
      {
         "value": "<h2>Lorem ipsum<\/h2>\r\n\r\n<p>dolor sit amet, consectetur adipiscing elit, sed do eiusmod tempor incididunt ut labore et dolore magna aliqua. Ut enim ad minim veniam, quis nostrud exercitation ullamco laboris nisi ut aliquip ex ea commodo consequat.&nbsp;<\/p>",
        "format": "unrestricted_html",
        "processed": "<h2>Lorem ipsum<\/h2>\n\n<p>dolor sit amet, consectetur adipiscing elit, sed do eiusmod tempor incididunt ut labore et dolore magna aliqua. Ut enim ad minim veniam, quis nostrud exercitation ullamco laboris nisi ut aliquip ex ea commodo consequat.\u00a0<\/p>",
        "summary": "",
        "summary_processed": "",
        "field_weight": [
          {
            "value": 0
          }
        ]
      }
    ]
}
